{
  "model": "StudentSuspendActions",
  "title": "Student Suspend",
  "settings": {
    "i18n": {
      "el": {
        "Student Suspend": "Αναστολή Φοιτητή"
      }
    }
  },
  "components": [
    {
      "type": "fieldset",
      "legend": "Student Suspend Information",
      "components": [
        {
          "columns": [
            {
              "components": [
                {
                  "label": "Suspend Date",
                  "key": "suspensionDate",
                  "enableTime": false,
                  "labelPosition": "top",
                  "widget": {
                    "type": "input"
                  },
                  "validate": {
                    "required": true
                  },
                  "type": "datetime",
                  "format": "dd/MM/yyyy",
                  "input": true
                }
              ],
              "width": 4
            },
            {
              "components": [
                {
                  "label": "Suspend Year",
                  "labelPosition": "top",
                  "key": "suspensionYear",
                  "type": "select",
                  "searchEnabled": false,
                  "customConditional": "show = !!data.object",
                  "dataSrc": "url",
                  "data": {
                    "url": "AcademicYears/?$top=100&$orderby=id desc&$filter=id ge {{data.object.inscriptionYear}}",
                    "headers": []
                  },
                  "limit": 20,
                  "template": "{{ item.alternateName }}",
                  "input": true,
                  "lazyLoad": true,
                  "selectValues": "value",
                  "widget": "choicesjs",
                  "validate": {
                    "required": true
                  }
                }
              ],
              "width": 4
            },
            {
              "components": [
                {
                  "label": "Suspend Period",
                  "labelPosition": "top",
                  "widget": "choicesjs",
                  "dataSrc": "url",
                  "data": {
                    "url": "AcademicPeriods",
                    "headers": []
                  },
                  "template": "{{ item.name }}",
                  "selectValues": "value",
                  "key": "suspensionPeriod",
                  "type": "select",
                  "input": true,
                  "searchEnabled": false,
                  "validate": {
                    "required": true
                  }
                }
              ],
              "width": 4
            },
            {
              "components": [
                {
                  "label": "Suspend Periods",
                  "labelPosition": "top",
                  "dataSrc": "url",
                  "widget": {
                    "type": "input"
                  },
                  "data": {
                  },
                  "template": "{{ item.name }}",
                  "selectValues": "value",
                  "key": "suspensionPeriods",
                  "type": "number",
                  "input": true,
                  "searchEnabled": false,
                  "validate": {
                    "required": true
                  }
                }
              ],
              "width": 4
            },
            {
              "components": [
                {
                  "label": "Suspend Expired Date",
                  "key": "suspensionExpiredDate",
                  "labelPosition": "top",
                  "widget": {
                    "type": "input"
                  },
                  "validate": {
                    "required": true
                  },
                  "type": "datetime",
                  "format": "dd/MM/yyyy",
                  "input": true
                }
              ],
              "width": 4
            },
            {
              "components": [
                {
                  "label": "Suspend Type",
                  "labelPosition": "top",
                  "widget": {
                    "type": "input"
                  },
                  "validate": {
                    "required": false
                  },
                  "key": "suspensionType",
                  "type": "textfield",
                  "input": true
                }
              ],
              "width": 4
            },
            {
              "components": [
                {
                  "label": "Suspend Reason",
                  "labelPosition": "top",
                  "key": "suspensionReason",
                  "type": "select",
                  "searchEnabled": false,
                  "customConditional": "show = !!data.object",
                  "dataSrc": "url",
                  "data": {
                    "url": "SuspensionReasons?$select=id,name&$orderby=name",
                    "headers": []
                  },
                  "template": "{{ item.name }}",
                  "input": true,
                  "lazyLoad": true,
                  "selectValues": "value",
                  "widget": "choicesjs",
                  "validate": {
                    "required": true
                  }
                }
              ],
              "width": 4
            },
            {
              "components": [
                {
                  "label": "Suspend Comments",
                  "labelPosition": "top",
                  "widget": {
                    "type": "input"
                  },
                  "validate": {
                    "required": false
                  },
                  "key": "comments",
                  "type": "textarea",
                  "input": true
                }
              ],
              "width": 12
            },
            {
              "components": [
                {
                  "label": "Action Status",
                  "labelPosition": "top",
                  "dataSrc": "url",
                  "data": {
                    "url": "ActionStatusTypes",
                    "headers": []
                  },
                  "template": "{{ item.name }}",
                  "key": "actionStatus",
                  "type": "select",
                  "input": true,
                  "selectValues": "value",
                  "widget": "choicesjs",
                  "searchEnabled": false,
                  "validate": {
                    "required": false
                  },
                  "disabled": true,
                  "valueProperty": "id",
                  "lazyLoad": false,
                  "hidden": true
                }
              ],
              "width": 12
            },
            {
              "components": [
                {
                  "label": "Status",
                  "widget": "choicesjs",
                  "dataSrc": "json",
                  "data": {
                    "json": [
                      {
                        "name": "Completed",
                        "alternateName": "CompletedActionStatus"
                      }
                    ]
                  },
                  "template": "{{ item.alternateName }}",
                  "key": "actionStatus",
                  "dataType": "object",
                  "idPath": "id",
                  "selectValues": "value",
                  "type": "select",
                  "input": true,
                  "hideOnChildrenHidden": false,
                  "calculateValue": "value = component.data.json[0];",
                  "clearOnHide": false,
                  "hidden": true
                }
              ],
              "width": 4,
              "offset": 0,
              "push": 0,
              "pull": 0
            }
          ],
          "customClass": "text-dark",
          "hideLabel": true,
          "type": "columns",
          "input": false
        }
      ]
    },
    {
      "type": "button",
      "label": "Submit",
      "key": "submit",
      "disableOnInvalid": true,
      "input": true
    }
  ],
  "width": 3
}
