{
    "title": "StudentCounselors",
    "model": "StudentCounselors",
  "searchExpression": "indexof(student/studentIdentifier, '${text}') ge 0 or indexof(student/person/familyName, '${text}') ge 0 or indexof(instructor/familyName, '${text}') ge 0 or indexof(student/studyProgram/name, '${text}') ge 0)",
  "selectable": true,
    "multipleSelect": true,
    "columns": [
      {
        "name": "id",
        "property": "id",
        "formatter": "ButtonFormatter",
        "className": "text-center",
        "formatOptions": {
          "buttonContent": "<i class=\"fas fa-edit text-indigo\"></i>",
          "buttonClass": "btn btn-default",
          "commands": [
            {
              "outlets": {
                "modal": [
                  "${id}",
                  "edit"
                ]
              }
            }
          ]
        }
      },
      {
        "name": "student/studentIdentifier",
        "property": "studentIdentifier",
        "title": "Students.studentIdentifier",
        "hidden": true
      },
      {
        "name": "student/person/familyName",
        "property": "familyName",
        "hidden": true,
        "title": "Students.FamilyName"
      },
      {
        "name": "student/person/givenName",
        "property": "givenName",
        "title": "Counselors.Student",
        "formatter": "TemplateFormatter",
        "formatString": "(${studentIdentifier}) ${familyName} ${givenName}"
      },
      {
        "name": "student/studentStatus/alternateName",
        "property": "studentStatus",
        "title": "Counselors.StudentStatus",
        "formatter": "TranslationFormatter",
        "formatString": "StudentStatuses.${value}"
      },
      {
        "name":"student/semester",
        "property": "semester",
        "title":"Counselors.StudentSemester"
      },
      {
        "name": "instructor/familyName",
        "property": "instructorFamilyName",
        "hidden": true
      },
      {
        "name": "instructor/givenName",
        "property": "instructorGivenName",
        "title": "Counselors.Counselor",
        "formatter": "TemplateFormatter",
        "formatString": "${instructorFamilyName} ${instructorGivenName}"
      },
      {
        "name": "instructor/status/alternateName",
        "property": "instructorStatus",
        "title": "Counselors.InstructorStatus",
        "formatter": "TranslationFormatter",
        "formatString": "InstructorStatuses.${value}"
      },
      {
        "name":"fromYear/alternateName",
        "property": "fromYear",
        "title":"Counselors.FromYear"
      },
      {
        "name": "startDate",
        "property": "startDate",
        "title": "Counselors.StartDate",
        "formatter": "DateTimeFormatter",
        "formatString": "shortDate"
      },
      {
        "name":"toYear/alternateName",
        "property": "toYear",
        "title":"Counselors.ToYear"
      },
      {
        "name": "endDate",
        "property": "endDate",
        "title": "Counselors.EndDate",
        "formatter": "DateTimeFormatter",
        "formatString": "shortDate"
      },
      {
        "name":"active",
        "property": "active",
        "title":"Counselors.IsActive",
        "formatters": [
          {
            "formatter": "TrueFalseFormatter"
          },
          {
            "formatter": "NgClassFormatter",
            "formatOptions": {
              "ngClass": {
                "text-success": "${active}",
                "text-danger": "${!active}"
              }
            }
          }
        ]
      }
    ],
    "defaults":{
      "filter": "(student/department eq ${currentDepartment})"
    },
  "criteria": [
    {
      "name": "studyProgram",
      "filter": "(indexof(student/studyProgram/abbreviation, '${value}') ge 0 )",
      "type": "text"
    },
    {
      "name": "studentName",
      "filter": "(indexof(student/person/familyName, '${value}') ge 0 or indexof(student/studentIdentifier, '${value}') ge 0)",
      "type": "text"
    },
    {
      "name": "instructorName",
      "filter": "(indexof(instructor/familyName, '${value}') ge 0 or indexof(instructor/givenName, '${value}') ge 0)",
      "type": "text"
    },
    {
      "name": "studentStatus",
      "filter": "(student/studentStatus/alternateName eq '${value}')",
      "type": "text"
    },
    {
      "name": "instructorStatus",
      "filter": "(instructor/status/alternateName eq '${value}')",
      "type": "text"
    },
    {
      "name": "fromYear",
      "filter": "(fromYear/id eq ${value})",
      "type": "text"
    },
    {
      "name": "toYear",
      "filter": "(toYear/id eq ${value})",
      "type": "text"
    },
    {
      "name": "fromPeriod",
      "filter": "(fromPeriod/alternateName eq '${value}')",
      "type": "text"
    },
    {
      "name": "active",
      "filter": "(active eq '${value}')",
      "type": "text"
    },
    {
      "name": "semester",
      "filter": "(student/semester eq ${value})",
      "type": "text"
    }
  ],
    "searches" : [
    ],
    "paths" : [
      {
        "name": "Counselors.Active",
        "show": true,
        "alternateName": "list/active",
        "filter": {
        }
      },
      {
        "name": "Counselors.All",
        "show": true,
        "alternateName": "list/index",
        "filter": {
        }
      }
    ]
}
