{
  "components": [
    {
      "label": "Columns",
      "columns": [
        {
          "components": [
            {
              "label": "Companies.Name",
              "spellcheck": true,
              "tableView": true,
              "key": "name",
              "type": "textfield",
              "input": true,
              "hideOnChildrenHidden": false
            }
          ],
          "width": 6
        },
        {
          "components": [
            {
              "label": "Companies.Profession",
              "spellcheck": true,
              "tableView": true,
              "key": "profession",
              "type": "textfield",
              "input": true,
              "hideOnChildrenHidden": false
            }
          ],
          "width": 6
        },
        {
          "components": [
            {
              "label": "Companies.VAT Number",
              "spellcheck": true,
              "tableView": true,
              "key": "vatNumber",
              "type": "textfield",
              "input": true,
              "hideOnChildrenHidden": false
            }
          ],
          "width": 3
        },
        {
          "components": [
            {
              "label": "Companies.VAT Office",
              "spellcheck": true,
              "tableView": true,
              "key": "vatOffice",
              "type": "textfield",
              "input": true,
              "hideOnChildrenHidden": false
            }
          ],
          "width": 3
        },
        {
          "components": [
            {
              "label": "Companies.Address",
              "spellcheck": true,
              "tableView": true,
              "key": "address",
              "type": "textfield",
              "input": true,
              "hideOnChildrenHidden": false
            }
          ],
          "width": 6
        },
        {
          "components": [
            {
              "label": "Companies.Phone",
              "spellcheck": true,
              "tableView": true,
              "key": "phone",
              "type": "textfield",
              "input": true,
              "hideOnChildrenHidden": false
            }
          ],
          "width": 3
        },
        {
          "components": [
            {
              "label": "Companies.FAX",
              "spellcheck": true,
              "tableView": true,
              "key": "fax",
              "type": "textfield",
              "input": true,
              "hideOnChildrenHidden": false
            }
          ],
          "width": 3
        },
        {
          "components": [
            {
              "label": "Companies.Email",
              "spellcheck": true,
              "tableView": true,
              "key": "email",
              "type": "textfield",
              "input": true,
              "hideOnChildrenHidden": false
            }
          ],
          "width": 6
        }
      ],
      "tableView": false,
      "type": "columns",
      "input": false,
      "path": "columns"
    }
  ]
}
