{
  "components": [
    {
      "label": "Columns",
      "columns": [
        {
          "components": [
            {
              "label": "Department",
              "widget": "choicesjs",
              "dataSrc": "url",
              "defaultValue": "",
              "labelPosition": "top",
              "data": {
                "values": [],
                "url": "/LocalDepartments?$top=-1&$skip=0&$orderby=name&&$select=id,name&$filter=id eq departments()",
                "headers": []
              },
              "validate": {
                "required": false
              },
              "valueProperty": "id",
              "lazyLoad": false,
              "dataType": "string",
              "template": "{{ item.name }}",
              "selectThreshold": 0.3,
              "key": "department",
              "type": "select",
              "selectValues": "value",
              "input": true

            }
          ],
          "width": 6,
          "offset": 0,
          "push": 0,
          "pull": 0
        },
        {
          "components": [
            {
              "label": "Departments.ListTable.StudyLevel",
              "widget": "choicesjs",
              "dataSrc": "url",
              "data": {
                "url": "StudyLevels?$orderby=id desc",
                "headers": []
              },
              "selectThreshold": 0.3,
              "validate": {
                "unique": false,
                "multiple": false
              },
              "template": "<span class='d-block pr-5 text-truncate'>{{ item.name }}</span>",
              "key": "studyLevel",
              "valueProperty": "id",
              "selectValues": "value",
              "type": "select",
              "input": true,
              "hideOnChildrenHidden": false,
              "disableLimit": false,
              "lazyLoad": false
            }
          ],
          "width": 3,
          "offset": 0,
          "push": 0,
          "pull": 0
        },
        {
          "components": [
            {
              "label": "Courses.IsEnabledLabel",
              "widget": "choicesjs",
              "data": {
                "values": [
                  {
                    "label": "Yes",
                    "value": "1"
                  },
                  {
                    "label": "No",
                    "value": "0"
                  }
                ]
              },
              "dataType": "string",
              "validate": {
                "unique": false,
                "multiple": false
              },
              "key": "isActive",
              "valueProperty": "value",
              "selectValues": "label",
              "type": "select",
              "input": true,
              "hideOnChildrenHidden": false,
              "disableLimit": false,
              "lazyLoad": false,
              "searchEnabled": false
            }
          ],
          "width": 3,
          "offset": 0,
          "push": 0,
          "pull": 0
        }
      ],
      "tableView": false,
      "key": "columns1",
      "type": "columns",
      "input": false,
      "path": "columns1"
    }
  ]
}
