{
  "model": "Scholarships",
  "settings": {
    "i18n": {
      "el": {
        "Edit the name of this scholarship.": "Ορίστε την ονομασία αυτής της υποτροφίας.",
        "Select the organization that offers this scholarship": "Επιλέξτε τον οργανισμό που προσφέρει την υποτροφία αυτή.",
        "Select the academic year this scholarship is being offered": "Επιλέξτε το ακαδημαϊκό έτος που προσφέρεται η υποτροφία αυτή",
        "Select the status of this scholarship.": "Επιλέξτε την κατάσταση της.",
        "Edit the full name of the communication manager employee.": "Ορίστε το ονοματεπώνυμο του υπεύθυνου υπαλλήλου επικοινωνίας."
      }
    }
  },
  "components": [
    {
      "type": "fieldset",
      "legend": "General",
      "components": [
        {
          "columns": [
            {
              "components": [
                {
                  "label": "Name",
                  "labelPosition": "top",
                  "widget": {
                    "type": "input"
                  },
                  "validate": {
                    "required": true
                  },
                  "key": "name",
                  "type": "textfield",
                  "input": true,
                  "description": "Edit the name of this scholarship."
                }
              ],
              "width": 6
            },
            {
              "components": [
                {
                  "label": "Department",
                  "labelPosition": "top",
                  "disabled": true,
                  "widget": "choicesjs",
                  "dataSrc": "url",
                  "data": {
                    "url": "LocalDepartments/?$select=name,id",
                    "headers": []
                  },
                  "searchFields": ["id","name"],
                  "searchField": "$search",
                  "template": "<span class='d-block pr-5 text-truncate'>{{ item.name }}</span>",
                  "selectValues": "value",
                  "key": "department",
                  "dataType": "object",
                  "idPath": "id",
                  "lazyLoad": false,
                  "type": "select",
                  "input": true
                }
              ],
              "width": 6
            }
          ],
          "customClass": "text-dark",
          "hideLabel": true,
          "type": "columns",
          "input": false
        },
        {
          "columns": [
            {
              "components": [
                {
                  "label": "Organization",
                  "labelPosition": "top",
                  "widget": "choicesjs",
                  "dataSrc": "url",
                  "data": {
                    "url": "Companies?$top={{limit}}&$skip={{skip}}&$select=id,name&$filter=indexof(name, '{{encodeURIComponent(search||'')}}') ge 0&$orderby=name",
                    "headers": []
                  },
                  "validate": {
                    "required": true
                  },
                  "searchFields": ["id","name"],
                  "searchField": "$search",
                  "template": "<span class='d-block pr-5 text-truncate'>{{ item.name }}</span>",
                  "selectValues": "value",
                  "key": "organization",
                  "dataType": "object",
                  "idPath": "id",
                  "lazyLoad": false,
                  "type": "select",
                  "input": true,
                  "description": "Select the organization that offers this scholarship"
                }
              ],
              "width": 3
            },
            {
              "components": [
                {
                  "label": "Academic Year",
                  "labelPosition": "top",
                  "dataSrc": "url",
                  "disabled": true,
                  "data": {
                    "url": "AcademicYears/?$top=100&$orderby=id desc",
                    "headers": []
                  },
                  "searchFields": ["id","name","alternateName"],
                  "template": "<span class='d-block pr-5 text-truncate'>{{ item.alternateName }}</span>",
                  "selectValues": "value",
                  "widget": "choicesjs",
                  "key": "year",
                  "type": "select",
                  "input": true,
                  "searchEnabled": false,
                  "description": "Select the academic year this scholarship is being offered"
                }
              ],
              "width": 3
            },
            {
              "components": [
                {
                  "label": "Type",
                  "labelPosition": "top",
                  "widget": "choicesjs",
                  "dataSrc": "url",
                  "data": {
                    "url": "ScholarshipTypes",
                    "headers": []
                  },
                  "validate": {
                    "required": true
                  },
                  "template": "<span class='d-block pr-5 text-truncate'>{{ item.name }}</span>",
                  "selectValues": "value",
                  "dataType": "object",
                  "idPath": "id",
                  "lazyLoad": false,
                  "type": "select",
                  "key": "scholarshipType",
                  "input": true,
                  "searchEnabled": false
                }
              ],
              "width": 3
            },
            {
              "components": [
                {
                  "label": "Status",
                  "labelPosition": "top",
                  "widget": "choicesjs",
                  "dataSrc": "url",
                  "data": {
                    "url": "ScholarshipStatuses",
                    "headers": []
                  },
                  "validate": {
                    "required": true
                  },
                  "template": "<span class='d-block pr-5 text-truncate'>{{ item.name }}</span>",
                  "selectValues": "value",
                  "dataType": "object",
                  "idPath": "id",
                  "lazyLoad": false,
                  "type": "select",
                  "key": "status",
                  "input": true,
                  "searchEnabled": false,
                  "description": "Select the status of this scholarship."
                }
              ],
              "width": 3
            },
            {
              "components": [
                {
                  "label": "Contact",
                  "labelPosition": "top",
                  "widget": {
                    "type": "input"
                  },
                  "validate": {
                    "maxLength": 255
                  },
                  "key": "contactName",
                  "type": "textfield",
                  "input": true,
                  "description": "Edit the full name of the communication manager employee."
                }
              ],
              "width": 6
            },
            {
              "components": [
                {
                  "label": "Notes",
                  "labelPosition": "top",
                  "widget": {
                    "type": "input"
                  },
                  "validate": {
                    "required": false
                  },
                  "key": "notes",
                  "type": "textarea",
                  "input": true
                }
              ],
              "width": 12
            }
          ],
          "customClass": "text-dark",
          "hideLabel": true,
          "type": "columns",
          "input": false
        }
      ]
    },
    {
      "type": "button",
      "label": "Submit",
      "key": "submit",
      "disableOnInvalid": true,
      "input": true
    }
  ]
}
