{
    "model": "Internships",
    "settings": {
      "i18n": {
        "el": {
          "Internship title": "Τίτλος πρακτικής άσκησης",
          "Select the department this internship will be bind with.": "Επιλέξτε το τμήμα με το οποίο θα συνδεθεί αυτή η πρακτική άσκηση.",
          "This is the unique number of the internship. If left blank, it will be auto-completed.": "Αυτός είναι ο μοναδικός αναγνωριστός κωδικός της πρακτικής άσκησης. Αν αφεθεί κενό, θα συμπληρωθεί αυτόματα.",
          "Select the brand name of the company that offers this internship.": "Επιλέξτε την επωνυμία της εταιρείας που την προσφέρει",
          "Edit the communication manager employee": "Ορίστε τον υπεύθυνο υπάλληλο επικοινωνίας της εταιρείας",
          "Edit the contact phone number of the company. It must also contain the country code.": "Ορίστε το τηλέφωνο επικοινωνίας της εταιρείας. Πρέπει να περιέχει και τον κωδικό της χώρας.",
          "Edit the academic year the internship will take place in.": "Ορίστε το ακαδημαϊκό έτος στο οποίο θα πραγματοποιηθεί η πρακτική άσκηση.",
          "Select the date the internship will start": "Ορίστε την πλήρη ημερομηνία έναρξης της",
          "Select the full date the internship was completed": "Ορίστε την πλήρη ημερομηνία ολοκλήρωσης της πρακτικής άσκησης",
          "Select the status of this internship. It defaults to potential.": "Επιλέξτε την κατάσταση της πρακτικής άσκησης. Ως προεπιλογή ορίζεται σε εξέλιξη.",
          "Select the academic period the internship will take place in.": "Επιλέξτε την ακαδημαϊκή περίοδο πραγματοποιήσης της.",
          "Edit the name of the internship. This should be as descriptive as possible and no more than 512 characters.": "Ορίστε το όνομα της. Προτείνεται να είναι όσο πιο επεξηγηματικό γίνεται και να μη ξεπερνάει τους 512 χαρακτήρες σε μήκος.",
          "Edit the student's given name": "Ορίστε το όνομα του φοιτητή",
          "Edit the student's family name": "Ορίστε το επώνυμο του φοιτητή",
          "Edit the given name of the student's father": "Ορίστε το πατρώνυμο του φοιτητή",
          "Edit the student's status.": "Ορίστε την κατάσταση του φοιτητή",
          "This should have a valid email format eg. user@example.com": "Πρέπει να έχει μια έγκυρη μορφή ηλεκτρονικού ταχυδρομείου π.χ. user@example.com",
          "Edit the given name of the student's mother": "Ορίστε το μητρώνυμο του φοιτητή",
          "Edit the student's mobile phone number. It must also contain the country code": "Πληκτρολογήστε τον αριθμό κινητού τηλεφώνου του φοιτητή. Πρέπει να περιέχει και τον κωδικό χώρας.",
          "Select the semester the student is currently enrolled in.": "Επιλέξτε το εξάμηνο στο οποίο φοιτάει ο φοιτητής",
          "Edit the student's department": "Ορίστε το τμήμα του φοιτητή",
          "Edit the student's study program": "Ορίστε το πρόγραμμα σπουδών του φοιτητή",
          "Select the academic year the student was enrolled.": "Επιλέξτε το ακαδημαϊκό έτος εγγραφής του φοιτητή.",
          "This internship has not been taken by a student. If you want to associate this internship with a student, please use the available action in preview page of this internship.": "Η πρακτική αυτή δεν έχει παραληφθεί από κάποιον φοιτητή. Αν θέλετε να συνδέσετε την πρακτική αυτή με κάποιον φοιτητή μπορείτε να χρησιμοποιήσετε τις διαθέσιμες επιλογές στην σελίδα προβολής της πρακτικής άσκησης.",
          "Edit the number of ECTS the student will receive for completing the internship": "Ορίστε τον αριθμό ECTS που θα πιστωθούν στον φοιτητή για την ολοκλήρωση της.",
          "Edit the number of units the student will receive for completing the internship": "Ορίστε τον αριθμό διδακτικών μονάδων που θα πιστωθούν στον φοιτητή για την ολοκλήρωση της.",
          "Duration (months)" : "Διάρκεια (σε μήνες)",
          "Working days (per week)": "Ημέρες απασχόλησης (ανά εβδομάδα)"
        }
      }
    },
    "components": [
      {
        "label": "Tabs",
        "type": "tabs",
        "key": "tabs1",
        "path": "tabs1",
        "input": false,
        "components": [
          {
            "label": "Internship Information",
            "components": [
              {
                "legend": "Internship Information",
                "key": "fieldSet",
                "type": "fieldset",
                "input": false,
                "label": "Internship Information",
                "components": [
                  {
                    "columns": [
                      {
                        "components": [
                          {
                            "type": "select",
                            "label": "Department",
                            "labelPosition": "top",
                            "dataSrc": "url",
                            "data": {
                              "url": "LocalDepartments/?$select=id,name",
                              "headers": []
                            },
                            "searchFields": ["id", "name"],
                            "template": "<span class='d-block pr-5 text-truncate'>{{ item.name }}</span>",
                            "selectValues": "value",
                            "widget": "choicesjs",
                            "key": "department.name",
                            "input": true,
                            "disabled": true,
                            "description": "Select the department this internship will be bind with."
                          }
                        ],
                        "width": 9,
                        "offset": 0,
                        "push": 0,
                        "pull": 0
                      },
                      {
                        "components": [
                          {
                            "type": "textfield",
                            "hidden": true,
                            "label": "ID",
                            "labelPosition": "top",
                            "widget": {
                              "type": "input"
                            },
                            "key": "id",
                            "input": true,
                            "disabled": true,
                            "description": "This is the unique number of the internship. If left blank, it will be auto-completed."
                          }
                        ],
                        "width": 3,
                        "offset": 0,
                        "push": 0,
                        "pull": 0
                      }
                    ],
                    "customClass": "text-dark",
                    "hideLabel": true,
                    "type": "columns",
                    "input": false
                  },
                  {
                    "columns": [
                      {
                        "components": [
                          {
                            "label": "Company",
                            "labelPosition": "top",
                            "type": "select",
                            "dataSrc": "url",
                            "data": {
                              "url": "Companies?$top={{limit}}&$skip={{skip}}&$select=id,name&$filter=indexof(name, '{{encodeURIComponent(search||'')}}') ge 0&$orderby=name",
                              "headers": []
                            },
                            "validate": {
                              "required": false
                            },
                            "limit": 15,
                            "dataType": "object",
                            "idPath": "id",
                            "searchField": "search",
                            "searchFields": ["value.id", "value.name"],
                            "searchThreshold": "0.3",
                            "template": "<span class='d-block pr-5'>{{ item.name }}</span>",
                            "selectValues": "value",
                            "key": "company",
                            "lazyLoad": true,
                            "widget": "choicesjs",
                            "input": true,
                            "searchEnabled": true,
                            "description": "Select the brand name of the company that offers this internship.",
                            "customClass": "formio-component-select-wrap"
                          }
                        ],
                        "width": 6,
                        "offset": 0,
                        "push": 0,
                        "pull": 0
                      },
                      {
                        "components": [
                          {
                            "type": "textfield",
                            "label": "Company contact",
                            "key": "companyContact",
                            "input": true,
                            "dataSrc": "url",
                            "description": "Edit the communication manager employee"
                          }
                        ],
                        "width": 3,
                        "offset": 0,
                        "push": 0,
                        "pull": 0
                      },
                      {
                        "components": [
                          {
                            "type": "textfield",
                            "label": "Company contact phone",
                            "key": "companyContactPhone",
                            "spellcheck": true,
                            "inputMask": "+999999999999",
                            "input": true,
                            "dataSrc": "url",
                            "description": "Edit the contact phone number of the company. It must also contain the country code."
                          }
                        ],
                        "width": 3,
                        "offset": 0,
                        "push": 0,
                        "pull": 0
                      }
                    ],
                    "customClass": "text-dark",
                    "type": "columns",
                    "input": false
                  },
                  {
                    "columns": [
                      {
                        "components": [
                          {
                            "type": "textfield",
                            "label": "Year",
                            "key": "internshipYear.name",
                            "input": true,
                            "dataSrc": "url",
                            "disabled": true,
                            "description": "Edit the academic year the internship will take place in."
                          }
                        ],
                        "width": 3,
                        "offset": 0,
                        "push": 0,
                        "pull": 0
                      },
                      {
                        "components": [
                          {
                            "label": "Start date",
                            "useLocaleSettings": true,
                            "tableView": false,
                            "enableMinDateInput": false,
                            "validate": {
                              "required": true
                            },
                            "datePicker": {
                              "disableWeekends": false,
                              "disableWeekdays": false
                            },
                            "description": "Select the date the internship will start",
                            "enableMaxDateInput": false,
                            "enableTime": false,
                            "key": "startDate",
                            "type": "datetime",
                            "format": "dd/MM/yyyy",
                            "input": true,
                            "widget": {
                              "type": "calendar",
                              "displayInTimezone": "viewer",
                              "locale": "en",
                              "useLocaleSettings": true,
                              "allowInput": true,
                              "mode": "single",
                              "enableTime": false,
                              "noCalendar": false,
                              "format": "yyyy-MM-dd",
                              "hourIncrement": 1,
                              "minuteIncrement": 1,
                              "time_24hr": false,
                              "disableWeekends": false,
                              "disableWeekdays": false
                            }
                          }
                        ],
                        "width": 3,
                        "offset": 0,
                        "push": 0,
                        "pull": 0
                      },
                      {
                        "components": [
                          {
                            "label": "End date",
                            "useLocaleSettings": true,
                            "tableView": false,
                            "enableMinDateInput": false,
                            "validate": {
                              "required": false
                            },
                            "datePicker": {
                              "disableWeekends": false,
                              "disableWeekdays": false
                            },
                            "enableMaxDateInput": false,
                            "enableTime": false,
                            "key": "endDate",
                            "type": "datetime",
                            "format": "dd/MM/yyyy",
                            "input": true,
                            "defaultValue": null
                          }
                        ],
                        "width": 3,
                        "offset": 0,
                        "push": 0,
                        "pull": 0
                      },
                      {
                        "components": [
                          {
                            "label": "Date completed",
                            "useLocaleSettings": true,
                            "tableView": false,
                            "enableMinDateInput": false,
                            "validate": {
                              "required": false
                            },
                            "datePicker": {
                              "disableWeekends": false,
                              "disableWeekdays": false
                            },
                            "description": "Select the full date the internship was completed",
                            "enableMaxDateInput": false,
                            "enableTime": false,
                            "key": "dateCompleted",
                            "type": "datetime",
                            "format": "dd/MM/yyyy",
                            "input": true,
                            "defaultValue": null,
                            "widget": {
                              "type": "calendar",
                              "displayInTimezone": "viewer",
                              "locale": "en",
                              "useLocaleSettings": true,
                              "allowInput": true,
                              "mode": "single",
                              "defaultValue": null,
                              "enableTime": false,
                              "noCalendar": false,
                              "format": "yyyy-MM-dd",
                              "hourIncrement": 1,
                              "minuteIncrement": 1,
                              "time_24hr": false,
                              "disableWeekends": false,
                              "disableWeekdays": false
                            }
                          }
                        ],
                        "width": 3,
                        "offset": 0,
                        "push": 0,
                        "pull": 0
                      },
                      {
                        "components": [
                          {
                            "type": "select",
                            "label": "Internship status",
                            "key": "status",
                            "dataType": "object",
                            "idPath": "id",
                            "input": true,
                            "dataSrc": "url",
                            "data": {
                              "url": "InternshipStatuses",
                              "headers": []
                            },
                            "template": "<span class='d-block pr-5 text-truncate'>{{ item.name }}</span>",
                            "selectValues": "value",
                            "validate": {
                              "required": true
                            },
                            "lazyLoad": false,
                            "searchEnabled": false,
                            "description": "Select the status of this internship. It defaults to potential."
                          }
                        ],
                        "width": 3
                      },
                      {
                        "components": [
                          {
                            "type": "select",
                            "label": "Period",
                            "input": true,
                            "widget": "choicesjs",
                            "validate": {
                              "required": true
                            },
                            "dataSrc": "url",
                            "data": {
                              "url": "AcademicPeriods",
                              "headers": []
                            },
                            "template": "<span class='d-block pr-5 text-truncate'>{{ item.name }}</span>",
                            "selectValues": "value",
                            "key": "internshipPeriod",
                            "dataType": "object",
                            "idPath": "id",
                            "lazyLoad": false,
                            "searchEnabled": false,
                            "description": "Select the academic period the internship will take place in."
                          }
                        ],
                        "width": 3
                      }
                    ],
                    "customClass": "text-dark",
                    "type": "columns",
                    "input": false
                  },
                  {
                    "columns": [
                      {
                        "components": [
                          {
                            "type": "textarea",
                            "label": "Internship name",
                            "key": "name",
                            "input": true,
                            "rows": 2,
                            "validate": {
                              "required": true
                            },
                            "description": "Edit the name of the internship. This should be as descriptive as possible and no more than 512 characters."
                          }
                        ],
                        "width": 12,
                        "offset": 0,
                        "push": 0,
                        "pull": 0
                      }
                    ],
                    "customClass": "text-dark",
                    "type": "columns",
                    "input": false
                  },
                  {
                    "columns": [
                      {
                        "components": [
                          {
                            "label": "Units",
                            "labelPosition": "top",
                            "widget": {
                              "type": "input"
                            },
                            "validate": {
                              "integer": false,
                              "min": 0,
                              "max": 100
                            },
                            "type": "number",
                            "input": true,
                            "key": "info.units",
                            "description": "Edit the number of units the student will receive for completing the internship"
                          }
                        ],
                        "width": 3,
                        "offset": 0,
                        "push": 0,
                        "pull": 0
                      },{
                        "components": [
                          {
                            "label": "ECTS",
                            "labelPosition": "top",
                            "widget": {
                              "type": "input"
                            },
                            "validate": {
                              "integer": false,
                              "min": 0,
                              "max": 300
                            },
                            "type": "number",
                            "input": true,
                            "key": "info.ects",
                            "description": "Edit the number of ECTS the student will receive for completing the internship"
                          }
                        ],
                        "width": 3,
                        "offset": 0,
                        "push": 0,
                        "pull": 0
                      },
                      {
                        "components": [
                          {
                            "label": "Working days (per week)",
                            "labelPosition": "top",
                            "widget": {
                              "type": "input"
                            },
                            "validate": {
                              "integer": false,
                              "min": 1,
                              "max": 7
                            },
                            "type": "number",
                            "input": true,
                            "key": "info.workingDays"

                          }
                        ],
                        "width": 3
                      },
                      {
                        "components": [
                          {
                            "label": "Duration (months)",
                            "labelPosition": "top",
                            "widget": {
                              "type": "input"
                            },
                            "validate": {
                              "integer": false,
                              "min": 1,
                              "max": 24
                            },
                            "type": "number",
                            "input": true,
                            "key": "info.duration"

                          }
                        ],
                        "width": 3
                      }
                    ],
                    "customClass": "text-dark",
                    "type": "columns",
                    "input": false
                  }
                ]
              }
            ]
          },
          {
            "label": "Student Information",
            "customConditional": "show = (data.student != null)",
            "components": [
              {
                "label": "HTML",
                "tag": "h5",
                "className": "font-weight-normal mb-3  mt-3",
                "content": "{{instance.t('This internship has not been taken by a student. If you want to associate this internship with a student, please use the available action in preview page of this internship.')}}",
                "refreshOnChange": false,
                "tableView": false,
                "key": "subtitle",
                "customConditional": "show = (data.student == null)",
                "type": "htmlelement",
                "input": false
              },
              {
                "legend": "Student Information",
                "key": "fieldSet",
                "type": "fieldset",
                "input": false,
                "label": "Student Information",
                "disabled": true,
                "customConditional": "show = (data.student != null)",
                "components": [
                  {
                    "columns": [
                      {
                        "components": [
                          {
                            "label": "Given Name",
                            "labelPosition": "top",
                            "dataSrc": "url",
                            "widget": {
                              "type": "input"
                            },
                            "key": "student.person.givenName",
                            "type": "textfield",
                            "input": true,
                            "description": "Edit the student's given name"
                          }
                        ],
                        "width": 3,
                        "offset": 0,
                        "push": 0,
                        "pull": 0
                      },
                      {
                        "components": [
                          {
                            "label": "Family Name",
                            "labelPosition": "top",
                            "widget": "choicesjs",
                            "dataSrc": "url",
                            "searchFields": [
                              "id"
                            ],
                            "selectThreshold": 0.3,
                            "selectValues": "value",
                            "key": "student.person.familyName",
                            "type": "textfield",
                            "input": true,
                            "description": "Edit the student's family name"
                          }
                        ],
                        "width": 3,
                        "offset": 0,
                        "push": 0,
                        "pull": 0
                      },
                      {
                        "components": [
                          {
                            "label": "Father's Name",
                            "labelPosition": "top",
                            "widget": "choicesjs",
                            "dataSrc": "url",
                            "searchFields": [
                              "id"
                            ],
                            "selectThreshold": 0.3,
                            "selectValues": "value",
                            "key": "student.person.fatherName",
                            "type": "textfield",
                            "input": true,
                            "description": "Edit the given name of the student's father"
                          }
                        ],
                        "width": 3,
                        "offset": 0,
                        "push": 0,
                        "pull": 0
                      },
                      {
                        "components": [
                          {
                            "label": "Status",
                            "labelPosition": "top",
                            "widget": "choicesjs",
                            "dataSrc": "url",
                            "data": {
                              "url": "StudentStatuses",
                              "headers": []
                            },
                            "template": "<span class='d-block pr-5 text-truncate'>{{ item.name }}</span>",
                            "selectThreshold": 0.3,
                            "selectValues": "value",
                            "key": "student.studentStatus.name",
                            "type": "textfield",
                            "input": true,
                            "description": "Edit the student's status."
                          }
                        ],
                        "width": 3,
                        "offset": 0,
                        "push": 0,
                        "pull": 0
                      }
                    ],
                    "customClass": "text-dark",
                    "hideLabel": true,
                    "type": "columns",
                    "input": false
                  },
                  {
                    "columns": [
                      {
                        "components": [
                          {
                            "label": "Student Number",
                            "labelPosition": "top",
                            "widget": {
                              "type": "input"
                            },
                            "key": "student.studentIdentifier",
                            "type": "number",
                            "input": true
                          }
                        ],
                        "width": 3,
                        "offset": 0,
                        "push": 0,
                        "pull": 0
                      },
                      {
                        "components": [
                          {
                            "label": "Mother's Name",
                            "labelPosition": "top",
                            "widget": {
                              "type": "input"
                            },
                            "key": "student.person.motherName",
                            "type": "textfield",
                            "input": true,
                            "description": "Edit the given name of the student's mother"
                          }
                        ],
                        "width": 3,
                        "offset": 0,
                        "push": 0,
                        "pull": 0
                      },
                      {
                        "components": [
                          {
                            "label": "Email",
                            "labelPosition": "top",
                            "key": "student.person.email",
                            "type": "textfield",
                            "input": true,
                            "selectValues": "value",
                            "widget": "choicesjs",
                            "description": "This should have a valid email format eg. user@example.com"
                          }
                        ],
                        "width": 3,
                        "offset": 0,
                        "push": 0,
                        "pull": 0
                      },
                      {
                        "components": [
                          {
                            "label": "Mobile Phone",
                            "labelPosition": "top",
                            "key": "student.person.mobilePhone",
                            "type": "number",
                            "input": true,
                            "selectValues": "value",
                            "widget": "choicesjs",
                            "description": "Edit the student's mobile phone number. It must also contain the country code"
                          }
                        ],
                        "width": 3,
                        "offset": 0,
                        "push": 0,
                        "pull": 0
                      }
                    ],
                    "customClass": "text-dark",
                    "type": "columns",
                    "input": false
                  },
                  {
                    "columns": [
                      {
                        "components": [
                          {
                            "label": "Semester",
                            "labelPosition": "top",
                            "widget": {
                              "type": "input"
                            },
                            "key": "student.semester",
                            "type": "number",
                            "input": true,
                            "description": "Select the semester the student is currently enrolled in."
                          }
                        ],
                        "width": 3,
                        "offset": 0,
                        "push": 0,
                        "pull": 0
                      },
                      {
                        "components": [
                          {
                            "label": "Department",
                            "labelPosition": "top",
                            "widget": {
                              "type": "input"
                            },
                            "key": "department.abbreviation",
                            "type": "textfield",
                            "input": true,
                            "description": "Edit the student's department"
                          }
                        ],
                        "width": 3,
                        "offset": 0,
                        "push": 0,
                        "pull": 0
                      },
                      {
                        "components": [
                          {
                            "label": "Study Program",
                            "labelPosition": "top",
                            "key": "student.studyProgram.abbreviation",
                            "type": "textfield",
                            "input": true,
                            "selectValues": "value",
                            "widget": "choicesjs",
                            "description": "Edit the student's study program"
                          }
                        ],
                        "width": 3,
                        "offset": 0,
                        "push": 0,
                        "pull": 0
                      },
                      {
                        "components": [
                          {
                            "label": "Inscription Year",
                            "labelPosition": "top",
                            "key": "student.inscriptionYear.alternateName",
                            "type": "textfield",
                            "input": true,
                            "selectValues": "value",
                            "widget": "choicesjs",
                            "description": "Select the academic year the student was enrolled."
                          }
                        ],
                        "width": 3,
                        "offset": 0,
                        "push": 0,
                        "pull": 0
                      }
                    ],
                    "customClass": "text-dark",
                    "type": "columns",
                    "input": false
                  }
                ]
              }
            ]
          },
          {
            "legend": "Other languages",
            "key": "otherLanguages",
            "type": "fieldset",
            "input": false,
            "label": "Other languages",

            "components": [{
              "label": "",
              "hideLabel": true,
              "key": "locales",
              "type": "datagrid",
              "disableAddingRemovingRows": true,
              "input": true,
              "customClass": "fix-panel-for-locales",
              "components": [{
                "collapsible": false,
                "hideLabel": true,
                "key": "panel",
                "type": "panel",
                "title": "",
                "hideTitle": true,
                "input": false,
                "tableView": false,
                "components": [{
                    "label": "Language",
                    "tableView": true,
                    "key": "inLanguage",
                    "disabled": "true",
                    "type": "textfield",
                    "input": true
                  },
                  {
                    "label": "Internship title",
                    "tableView": true,
                    "key": "name",
                    "type": "textarea",
                    "input": true
                  },
                  {
                    "label": "Company contact",
                    "tableView": true,
                    "key": "companyContact",
                    "type": "textfield",
                    "input": true
                  }
                ]
              }]
            }]
          }
        ]
      },
      {
        "type": "button",
        "label": "Submit",
        "key": "submit",
        "disableOnInvalid": true,
        "input": true
      }
    ]
  }
