{
  "model": "StudyProgramSemesterRules",
  "settings": {
    "i18n": {
      "el": {
        "Semester rules": "Κανόνες εξαμήνων",
        "Rule type": "Τύπος κανόνα",
        "Semester rule": "Κανόνας εξαμήνου",
        "Registration rule": "Κανόνας δήλωσης",
        "Set maximum allowed courses to be registered for specific semester": "Ορίστε τον τύπο του μαθήματος σύμφωνα με τους κανόνες και τις προϋποθέσεις του προγράμματος σπουδών.",
        "Set semester according to rules and requirements of this study program.": "Ορίστε το εξάμηνο σύμφωνα με τους κανόνες και τις προϋποθέσεις του προγράμματος σπουδών.",
        "Set semester according to rules and requirements of this study program. Leave blank to set the \"Remaining semesters\".": "Ορίστε το εξάμηνο σύμφωνα με τους κανόνες και τις προϋποθέσεις του προγράμματος σπουδών. Αφήστε κενό για να επιλέξετε τα \"Υπόλοιπα εξάμηνα\"",
        "Select \"Semester rule\" to set the minimum number of required passed courses per course type for each semester or \"Registration rule\" to set the maximum number of courses that can be registered per course type": "Επιλέξτε \"Κανόνας εξαμήνου\" για να ορίσετε τον ελάχιστο αριθμό μαθημάτων ανά τύπο μαθήματος που πρέπει να περαστεί σε κάθε εξάμηνο ή \"Κανόνας δήλωσης\" για να ορίσετε τον μέγιστο επιτρεπόμενο αριθμό μαθημάτων που μπορεί να δηλωθεί ανά τύπο μαθήματος",
        "Number of courses": "Αριθμός μαθημάτων",
        "Number of ects": "Αριθμός ects",
        "Number of units": "Αριθμός διδακτικών μονάδων",
        "Number of hours": "Αριθμός ωρών",
        "Semester required": "Εξάμηνο υποχρεωτικό",
        "Calculate course parts as one course": "Υπολογισμός μερών μαθήματος σαν ένα μάθημα",
        "Check only courses that are registered for the first time": "Έλεγχος των συνόλων ΜΟΝΟ για μαθήματα που δηλώνονται πρώτη φορά",
        "Check only courses of greater semesters": "Έλεγχος των συνόλων ΜΟΝΟ για μαθήματα μεγαλύτερων εξαμήνων από το εξάμηνο του φοιτητή"
      }
    }
  },
  "components": [
    {
      "legend": "Semester rules",
      "key": "fieldSet",
      "type": "fieldset",
      "input": false,
      "label": "Semester rules",
      "components": [
        {
          "label": "HTML",
          "tag": "h5",
          "className": "font-weight-normal",
          "content": "{{form.subtitle}}",
          "refreshOnChange": false,
          "tableView": false,
          "key": "subtitle",
          "type": "htmlelement",
          "input": false
        },

        {
          "columns": [
            {
              "components": [
                {
                  "label": "Rule type",
                  "labelPosition": "top",
                  "widget": "choicesjs",
                  "searchEnabled": false,
                  "data": {
                    "values": [
                      {
                        "label": "Semester rule",
                        "value": "SemesterRule"
                      },
                      {
                        "label": "Registration rule",
                        "value": "RegistrationRule"
                      }
                    ]
                  },
                  "dataType": "string",
                  "validate": {
                    "required": true
                  },
                  "selectThreshold": 0.3,
                  "key": "additionalType",
                  "selectValues": "value",
                  "type": "select",
                  "input": true,
                  "defaultValue": "SemesterRule",
                  "description": "Select \"Semester rule\" to set the minimum number of required passed courses per course type for each semester or \"Registration rule\" to set the maximum number of courses that can be registered per course type"
                }
              ],
              "width": 12
            },
            {
              "components": [
                {
                  "label": "Semester",
                  "labelPosition": "top",
                  "widget": "choicesjs",
                  "dataSrc": "url",
                  "data": {
                    "url": "Semesters?$orderby=id",
                    "headers": []
                  },
                  "template": "<span class='col-4 text-truncate'>{{ item.name }}</span>",
                  "selectValues": "value",
                  "key": "semester",
                  "searchEnabled": false,
                  "type": "select",
                  "input": true,
                  "lazyLoad": false,
                  "validateOn": "change",
                  "valueProperty":"id",
                  "validate":{
                    "custom":"valid = (data.additionalType == 'SemesterRule' && !data.semester) ? false : true",
                    "customMessage": "Semester required"
                  },
                  "logic": [
                    {
                      "name": "changeDescriptionForRegistrationRule",
                      "trigger": {
                        "type": "javascript",
                        "javascript": "result = (data.additionalType == 'RegistrationRule')"
                      },
                      "actions": [
                        {
                          "name": "registrationRuleDesc",
                          "type": "property",
                          "property":{
                            "label": "Description",
                            "value": "description",
                            "type":"string"
                        },
                        "text": "Set semester according to rules and requirements of this study program. Leave blank to set the \"Remaining semesters\"."
                        }
                      ]
                    },
                    {
                      "name": "changeDescriptionForSemesterRule",
                      "trigger": {
                        "type": "javascript",
                        "javascript": "result = (data.additionalType == 'SemesterRule')"
                      },
                      "actions": [
                        {
                          "name": "semesterRuleDesc",
                          "type": "property",
                          "property":{
                            "label": "Description",
                            "value": "description",
                            "type":"string"
                        },
                        "text": "Set semester according to rules and requirements of this study program."
                        }
                      ]
                    }
                  ]
                }
              ],
              "width": 8
            },
            {
              "components": [
                {
                  "optionsLabelPosition": "right",
                  "inline": true,
                  "tableView": false,
                  "label": "Course types",
                  "defaultValue": "all",
                  "customClass": "pb-3",
                  "values": [
                    {
                      "label": "All",
                      "value": "all"
                    },
                    {
                      "label": "Select types",
                      "value": "selectTypes"
                    }
                  ],
                  "redrawOn": "courseTypes",
                  "calculateValue": "if ((data.courseTypes && data.courseTypes.length===1 && data.courseTypes[0].id==\"-1\"))\n{\n  value=\"all\";\n}\nelse\n{\n value=\"selectTypes\";\n } \n ",
                  "allowCalculateOverride": true,
                  "key": "radio",
                  "type": "radio",
                  "input": true
                },
                {
                  "widget": "choicesjs",
                  "label": "Select",
                  "hideLabel": true,
                  "tableView": true,
                  "multiple": true,
                  "dataSrc": "url",
                  "data": {
                    "url": "CourseTypes?$top=-1",
                    "headers": []
                  },
                  "selectValues": "value",
                  "template": "<span class='text-truncate'>{{ item.name }}</span>",
                  "key": "courseTypes",
                  "conditional": {
                    "show": true,
                    "when": "radio",
                    "eq": "selectTypes"
                  },
                  "type": "select",
                  "input": true,
                  "lazyLoad": false
                }
              ],
              "width": 6,
              "offset": 0,
              "push": 0,
              "pull": 0,
              "size": "md"
            }
          ],
          "customClass": "text-dark pb-2",
          "hideLabel": true,
          "type": "columns",
          "input": false
        },
        {
          "columns": [
            {
              "components": [
                {
                  "label": "Number of courses",
                  "labelPosition": "top",
                  "widget": {
                    "type": "input"
                  },
                  "validate": {
                    "required": true,
                    "integer": true,
                    "min": 0
                  },
                  "key": "courses",
                  "type": "number",
                  "input": true,
                  "protected": true,
                  "defaultValue": 0
                }
              ],
              "width": 3
            },
            {
              "components": [
                {
                  "label": "Number of ects",
                  "labelPosition": "top",
                  "widget": {
                    "type": "input"
                  },
                  "validate": {
                    "required": true,
                    "integer": true,
                    "min": 0
                  },
                  "key": "ects",
                  "type": "number",
                  "input": true,
                  "protected": true,
                  "defaultValue": 0
                }
              ],
              "width": 3
            },
            {
              "components": [
                {
                  "label": "Number of units",
                  "labelPosition": "top",
                  "widget": {
                    "type": "input"
                  },
                  "validate": {
                    "required": true,
                    "integer": true,
                    "min": 0
                  },
                  "key": "units",
                  "type": "number",
                  "input": true,
                  "protected": true,
                  "defaultValue": 0
                }
              ],
              "width": 3
            },
            {
              "components": [
                {
                  "label": "Number of hours",
                  "labelPosition": "top",
                  "widget": {
                    "type": "input"
                  },
                  "validate": {
                    "required": true,
                    "integer": true,
                    "min": 0
                  },
                  "key": "hours",
                  "type": "number",
                  "input": true,
                  "protected": true,
                  "defaultValue": 0
                }
              ],
              "width": 3
            },
            {
              "components": [
                {
                  "label": "Calculate course parts as one course",
                  "defaultValue": false,
                  "validate": {
                    "unique": false,
                    "multiple": false
                  },
                  "key": "calculateCoursePartsAsOne",
                  "type": "checkbox",
                  "input": true,
                  "disabled": false,
                  "customConditional": "show = !!(data.additionalType == 'RegistrationRule')"
                }
              ],
              "width": 12
            },
            {
              "components": [
                {
                  "label": "Check only courses that are registered for the first time",
                  "defaultValue": false,
                  "validate": {
                    "unique": false,
                    "multiple": false
                  },
                  "key": "checkFirstTimeRegisteredCourses",
                  "type": "checkbox",
                  "input": true,
                  "disabled": false,
                  "customConditional": "show = !!(data.additionalType == 'RegistrationRule')"
                }
              ],
              "width": 12
            },
            {
              "components": [
                {
                  "label": "Check only courses of greater semesters",
                  "defaultValue": false,
                  "validate": {
                    "unique": false,
                    "multiple": false
                  },
                  "key": "checkGreaterExamCourses",
                  "type": "checkbox",
                  "input": true,
                  "disabled": false,
                  "customConditional": "show = !!(data.additionalType == 'RegistrationRule')"
                }
              ],
              "width": 12
            }
          ],
          "customClass": "text-dark",
          "hideLabel": true,
          "type": "columns",
          "input": false
        }
      ]
    },
    {
      "type": "button",
      "label": "Submit",
      "key": "submit",
      "disableOnInvalid": true,
      "input": true
    }
  ]
}
