{
    "title": "StudyPrograms",
    "model": "StudyPrograms",
    "searchExpression":"indexof(name, '${text}') ge 0 or indexof(department/name, '${text}') ge 0 or indexof(studyLevel/name, '${text}') ge 0",
    "columns": [
      {
        "name":"id",
        "property": "id",
        "formatter": "ActionLinkFormatter",
        "actions" : [
          {
            "title": "StudyPrograms.Preview",
            "href": "#/study-programs/${id}/"
          },
          {
            "title": "StudyPrograms.EditStudyProgram",
            "href": "#/study-programs/${id}/edit"
          }
        ]

      },
      {
        "name":"isActive",
        "property": "isActive",
        "title":"StudyPrograms.Active.Singular",
        "formatter": "TrueFalseFormatter"
      },
      {
        "name":"name",
        "property": "name",
        "title":"StudyPrograms.Name"
      },
      {
        "name":"department/name",
        "property": "departmentName",
        "title":"StudyPrograms.DepartmentName"
      },
      {
        "name":"studyLevel/alternateName",
        "property": "studyLevel",
        "title":"StudyPrograms.StudyLevel",
        "formatter": "TranslationFormatter",
        "formatString": "StudyLevels.${value}"
      },
      {
        "name":"semesters",
        "property": "semesters",
        "title":"StudyPrograms.Semesters"
      },
      {
        "name":"abbreviation",
        "property": "abbreviation",
        "title":"StudyPrograms.Abbreviation"
      },
      {
        "name":"decimalDigits",
        "property": "decimalDigits",
        "title":"StudyPrograms.DecimalDigits"
      },
      {
        "name": "hasFees",
        "property": "hasFees",
        "title": "StudyPrograms.HasFees",
        "formatter": "TrueFalseFormatter",
        "hidden": true,
        "optional": true
      },
      {
        "name": "maxNumberOfRemarking",
        "property": "maxNumberOfRemarking",
        "title": "StudyPrograms.MaxNumberOfRemarking",
        "hidden": true,
        "optional": true
      },
      {
        "name": "department/contactPerson1",
        "property": "departmentContactPerson",
        "title": "StudyPrograms.Department.ContactPerson",
        "hidden": true,
        "optional": true
      },
      {
        "name": "department/contactPerson2",
        "property": "departmentAlternateContactPerson",
        "title": "StudyPrograms.Department.ΑlternateContactPerson",
        "hidden": true,
        "optional": true
      },
      {
        "name": "department/email",
        "property": "departmentEmail",
        "title": "StudyPrograms.Department.Email",
        "hidden": true,
        "optional": true
      },
      {
        "name": "department/phone1",
        "property": "departmentPhone",
        "title": "StudyPrograms.Department.Phone",
        "hidden": true,
        "optional": true
      },
      {
        "name": "department/phone2",
        "property": "departmentAlternatePhone",
        "title": "StudyPrograms.Department.AlternatePhone",
        "hidden": true,
        "optional": true
      },
      {
        "name": "info/maximumAllowedSemester",
        "property": "maximumAllowedSemester",
        "title": "StudyPrograms.MaximumAllowedSemester",
        "hidden": true,
        "optional": true
      },
      {
        "name": "info/maximumAllowedThesis",
        "property": "maximumAllowedThesis",
        "title": "StudyPrograms.MaximumAllowedThesis",
        "hidden": true,
        "optional": true
      },
      {
        "name": "info/minimumAllowedSemester",
        "property": "minimumAllowedSemester",
        "title": "StudyPrograms.MinimumAllowedSemester",
        "hidden": true,
        "optional": true
      },
      {
        "name": "info/fees",
        "property": "fees",
        "title": "StudyPrograms.Fees",
        "hidden": true,
        "optional": true
      }
    ],
    "defaults":{
      "filter": "(department eq ${currentDepartment} and isActive eq '1')"
    },
    "criteria": [
      {
        "name": "name",
        "filter": "(indexof(name, '${value}') ge 0)",
        "type": "text"
      },
      {
        "name": "studylevel",
        "filter": "(studyLevel/alternateName eq '${value}')",
        "type": "text"
      },
      {
        "name": "active",
        "filter": "(isActive eq '${value}')",
        "type": "text"
      },
      {
        "name": "abbreviation",
        "filter": "(indexof(abbreviation, '${value}') ge 0)",
        "type": "text"
      }
    ],
    "paths" : [
        {
            "name": "StudyPrograms.All",
            "show": true,
            "alternateName": "list/index",
            "filter": { }
        },
        {
          "name": "StudyPrograms.Active.Plural",
          "alternateName": "list/active",
          "show": true,
          "filter": {
            "isActive": "1"
          }
        },
        {
            "name": "StudyPrograms.OtherDepartments",
            "show": true,
            "alternateName": "list/all",
            "filter": { }
        }
    ]
  }

