{
  "model": "RoleTypes",
  "subtitle": "Settings.EditItem",
  "settings": {
    "i18n": {
      "el": {
        "Set the name of this item": "Ορίστε την ονομασία του στοιχείου",
        "Set an alternate name for this item. This name will be used to identify items": "Ορίστε μία εναλλακτική ονομασία για αυτό το στοιχείο. Αυτό το όνομα θα χρησιμοποιηθεί για την ταυτοποίηση του στοιχείου",
        "This field must contain only latin characters or numbers e.g. active, closed etc. A value is required.": "Αυτό το πεδίο πρέπει να περιέχει μόνον λατινικούς χαρακτήρες ή αριθμούς πχ. active, closed κτλ. Το πεδίο είναι υποχρεωτικό.",
        "Write a short description for this item": "Γράψτε μία σύντομη περιγραφή για αυτό το στοιχείο",
        "Set an identifier that is going to be used either by an external system or by internal processes": "Ορίστε ένα κωδικό ταυτοποίησης ο οποίος πρόκειται να χρησιμοποιηθεί είτε από εξωτερικά συστήματα είτε από εσωτερικές διαδικασίες",
        "Titles": "Τίτλοι",
        "Set the titles of the role (e.g. for identification when digitally signing a document)": "Ορίστε τους τίτλους του ρόλου (πχ για την ταυτοποίησή του κατά τη ψηφιακή υπογραφή πιστοποιητικών)",
        "Set the role's name for this alternate language": "Ορίστε την ονομασία του ρόλου στην εναλλακτική γλώσσα"
      }
    }
  },
  "components": [
    {
      "label": "Tabs",
      "type": "tabs",
      "key": "tabs1",
      "path": "tabs1",
      "input": false,
      "components": [
        {
          "label": "General Information",
          "components": [
            {
              "type": "fieldset",
              "components": [
                {
                  "label": "HTML",
                  "tag": "h5",
                  "className": "font-weight-normal",
                  "content": "{{instance.i18next.translator.translate('Edit item')}}",
                  "refreshOnChange": false,
                  "tableView": false,
                  "key": "subtitle",
                  "type": "htmlelement",
                  "input": false
                },
                {
                  "columns": [
                    {
                      "components": [
                        {
                          "label": "Name",
                          "labelPosition": "top",
                          "widget": {
                            "type": "input"
                          },
                          "validate": {
                            "required": true
                          },
                          "key": "name",
                          "type": "textfield",
                          "input": true,
                          "disabled": false,
                          "description": "Set the name of this item"
                        }
                      ],
                      "width": 6
                    },
                    {
                      "components": [
                        {
                          "label": "AlternateName",
                          "labelPosition": "top",
                          "widget": {
                            "type": "input"
                          },
                          "validate": {
                            "required": true,
                            "pattern": "^[a-zA-Z0-9_+-]+$",
                            "customMessage": "This field must contain only latin characters or numbers. A value is required."
                          },
                          "key": "alternateName",
                          "type": "textfield",
                          "input": true,
                          "description": "Set an alternate name for this item. This name will be used to identify items"
                        }
                      ],
                      "width": 6
                    },
                    {
                      "components": [
                        {
                          "label": "Description",
                          "labelPosition": "top",
                          "widget": {
                            "type": "input"
                          },
                          "validate": {
                            "required": false
                          },
                          "key": "description",
                          "type": "textarea",
                          "input": true,
                          "description": "Write a short description for this item"
                        }
                      ],
                      "width": 6
                    },
                    {
                      "components": [
                        {
                          "label": "Identifier",
                          "labelPosition": "top",
                          "widget": {
                            "type": "input"
                          },
                          "validate": {
                            "required": false
                          },
                          "key": "identifier",
                          "type": "textfield",
                          "input": true,
                          "description": "Set an identifier that is going to be used either by an external system or by internal processes"
                        }
                      ],
                      "width": 6
                    }
                  ],
                  "customClass": "text-dark",
                  "hideLabel": true,
                  "type": "columns",
                  "input": false
                },
                {
                  "columns": [
                    {
                      "components": [
                        {
                          "label": "Titles",
                          "labelPosition": "top",
                          "widget": {
                            "type": "input"
                          },
                          "validate": {
                            "required": false
                          },
                          "addAnother": "AddItem",
                          "key": "titles",
                          "type": "textfield",
                          "multiple": true,
                          "input": true,
                          "description": "Set the titles of the role (e.g. for identification when digitally signing a document)"
                        }
                      ],
                      "width": 6
                    }
                  ],
                  "customClass": "text-dark",
                  "hideLabel": true,
                  "type": "columns",
                  "input": false
                }
              ]
            }
          ]
        },
        {
          "legend": "Other languages",
          "key": "fieldSet",
          "type": "fieldset",
          "input": false,
          "label": "Other languages",
          "components": [
            {
              "label": "",
              "hideLabel": true,
              "key": "locales",
              "type": "datagrid",
              "disableAddingRemovingRows": true,
              "input": true,
              "customClass": "fix-panel-for-locales",
              "components": [
                {
                  "collapsible": false,
                  "hideLabel": true,
                  "key": "panel",
                  "type": "panel",
                  "title": "",
                  "hideTitle": true,
                  "input": false,
                  "tableView": false,
                  "components": [
                    {
                      "label": "Language",
                      "tableView": true,
                      "key": "inLanguage",
                      "disabled": "true",
                      "type": "textfield",
                      "input": true
                    },
                    {
                      "label": "Name",
                      "tableView": true,
                      "key": "name",
                      "type": "textfield",
                      "description": "Set the role's name for this alternate language",
                      "input": true
                    }
                  ]
                }
              ]
            }
          ]
        }
      ]
    },
    {
      "type": "button",
      "label": "Submit",
      "key": "submit",
      "disableOnInvalid": true,
      "input": true
    }
  ]
}
