{
  "columns": [
    {
      "name": "name",
      "title": "Settings.Attributes.title",
      "hidden": false
    },
    {
      "name": "inLanguage",
      "property": "inLanguage",
      "title": "Settings.Attributes.inLanguage",
      "hidden": false,
      "formatter": "LanguageFormatter"
    },
    {
      "name": "actionStatus/alternateName",
      "property": "actionStatus",
      "title": "Settings.Attributes.status",
      "formatters": [
        {
          "formatter": "TranslationFormatter",
          "formatString": "ActionStatusTypes.${value}"
        },
        {
          "formatter": "NgClassFormatter",
          "formatOptions": {
            "ngClass": {
              "text-danger": "'${actionStatus}'==='CancelledActionStatus' || '${actionStatus}'==='FailedActionStatus'",
              "text-primary": "'${actionStatus}'==='ActiveActionStatus' || '${actionStatus}'==='PotentialActionStatus'",
              "text-success": "'${actionStatus}'==='CompletedActionStatus'"
            }
          }
        }
      ]
    },
    {
      "name": "id",
      "formatter": "ButtonFormatter",
      "formatString": "(modal:edit)",
      "className": "text-center",
      "formatOptions": {
        "buttonContent": "<i class=\"far fa-edit text-indigo\"></i>",
        "buttonClass": "btn btn-default"
      }
    }
  ]
}
