{
  "model": "StudyProgramCourses",
  "searchExpression": "indexof(course/displayCode, '${text}') ge 0 or indexof(course/name, '${text}') ge 0)",
  "title": "Study Program Courses",
  "columns": [
    {
      "name": "studyProgram",
      "hidden": "true"
    },
    {
      "name": "id",
      "property": "id",
      "formatter": "ActionLinkFormatter",
      "actions": [
        {
          "title": "StudyPrograms.Preview",
          "href": "#/study-programs/${studyProgram}/preview/courses/(modal:/programCourses/${id}/edit)"
        }
      ]
    },
    {
      "name": "course/displayCode",
      "property": "courseID",
      "title": "Courses.displayCode"
    },
    {
      "name": "course/name",
      "property": "title",
      "title": "Courses.titleLabel"
    },
    {
      "name": "semester/id",
      "property": "semester",
      "title": "Courses.semester"
    },
    {
      "name": "course/ects",
      "property": "ects",
      "title": "Courses.ects"
    },
    {
      "name": "courseType/abbreviation",
      "property": "courseType",
      "title": "Courses.courseType"
    },
    {
      "name": "course/dateModified",
      "property": "dateModified",
      "title": "Courses.dateModified",
      "formatter": "DateTimeFormatter",
      "formatString": "shortDate"
    }
  ],
  "criteria": [
    {
      "name": "courseName",
      "filter": "(indexof(course/name, '${value}') ge 0)",
      "type": "text"
    },
    {
      "name": "displayCode",
      "filter": "(indexof(course/displayCode, '${value}') ge 0)",
      "type": "text"
    },
    {
      "name": "ects",
      "filter": "(course/ects eq '${value}')",
      "type": "text"
    },
    {
      "name": "courseType",
      "filter": "(courseType/abbreviation eq '${value}')",
      "type": "text"
    },
    {
      "name": "semester",
      "filter": "(semester/id eq '${value}')",
      "type": "text"
    }
  ]
}
