{
    "title": "Requests.ActiveStudentRequestActions",
    "model": "StudentRequestActions",
    "searchExpression": "(indexof(student/person/familyName, '${text}') ge 0 or indexof(student/person/givenName, '${text}') ge 0 or indexof(description, '${text}') ge 0 or indexof(name, '${text}') ge 0 or indexof(student/studentIdentifier, '${text}') ge 0)",
    "selectable": false,
    "multipleSelect": false,
    "columns": [
      {
        "name": "id",
        "property": "id",
        "formatter": "ActionLinkFormatter",
        "actions": [
          {
            "title": "Requests.Preview.Label",
            "href": "#/requests/${id}/"
          }
        ]
      },
      {
        "name": "description",
        "property": "description",
        "title": "Requests.RequestTitleLower",
        "formatter": "TemplateFormatter",
        "formatString": "${description || name}"
      },
      {
        "name": "name",
        "property": "name",
        "hidden": true
      },
      {
        "name": "additionalType",
        "property": "additionalType",
        "title": "Requests.AdditionalType",
        "formatter": "TranslationFormatter",
        "formatString": "StudentRequestActionsTypes.${value}"
      },
      {
        "name": "student/studentIdentifier",
        "property": "studentIdentifier",
        "title": "Requests.StudentIdentifier"
      },
      {
        "name": "student/person/familyName",
        "property": "familyName",
        "title": "Requests.FullName",
        "formatter": "TemplateFormatter",
        "formatString": "${familyName} ${givenName}"
      },
      {
        "name": "student/person/givenName",
        "property": "givenName",
        "title": "Requests.GivenName",
        "hidden": true
      },
      {
        "name": "student/department/name",
        "property": "department",
        "title": "Requests.DepartmentName"
      },
      {
        "name": "student/studentStatus/alternateName",
        "property": "studentStatus",
        "title": "Requests.StudentStatus",
        "formatter": "TranslationFormatter",
        "formatString": "StudentStatuses.${value}"
      },
      {
        "name": "startTime",
        "property": "startTime",
        "title": "Requests.StartTime",
        "formatter": "DateTimeFormatter",
        "formatString": "shortDate"
      },
      {
        "name": "actionStatus/alternateName",
        "property": "actionStatus",
        "title": "Requests.ActionStatusTitle",
        "formatters": [
          {
            "formatter": "TranslationFormatter",
            "formatString": "ActionStatusTypes.${value}"
          },
          {
            "formatter": "NgClassFormatter",
            "formatOptions": {
              "ngClass": {
                "text-danger": "'${actionStatus}'==='CancelledActionStatus' || '${actionStatus}'==='FailedActionStatus'",
                "text-primary": "'${actionStatus}'==='ActiveActionStatus' || '${actionStatus}'==='PotentialActionStatus'",
                "text-success": "'${actionStatus}'==='CompletedActionStatus'"
              }
            }
          }
        ]
      }
    ],
    "defaults":{
      "filter": "",
      "orderBy": "dateCreated desc"
    },
    "paths" : [
      {
        "name": "Requests.Active",
        "show": true,
        "alternateName": "list/active",
        "filter": {
        }
      },
      {
        "name": "Requests.All",
        "show": true,
        "alternateName": "list/index",
        "filter": {
        }
      },
      {
        "name": "StudentRequestActionsTypes.RequestDocumentActions",
        "show": true,
        "alternateName": "list/documentAction",
        "filter": {
        }
      },
      {
        "name": "StudentRequestActionsTypes.RequestsRemoveAction",
        "show": false,
        "alternateName": "list/remove",
        "filter": {
        }
      },
      {
        "name": "StudentRequestActionsTypes.RequestsSuspendAction",
        "show": false,
        "alternateName": "list/suspend",
        "filter": {
        }
      },
      {
        "name": "StudentRequestActionsTypes.ExamPeriodParticipateActions",
        "show": true,
        "alternateName": "list/examParticipate",
        "filter": {
        }
      },
      {
        "name": "StudentRequestActionsTypes.PeriodParticipateRequestActions",
        "show": true,
        "alternateName": "list/periodParticipate",
        "filter": {}
      },
      {
        "name": "StudentRequestActionsTypes.RequestPartTimeProgramActions",
        "show": true,
        "alternateName": "list/partTime",
        "filter": {}
      }
    ],
    "criteria": [
      {
        "name": "additionalType",
        "filter": "(additionalType eq '${value}')",
        "type": "text"
      },
      {
        "name": "studentName",
        "filter": "(indexof(student/person/familyName, '${value}') ge 0 or indexof(student/person/givenName, '${value}') ge 0)",
        "type": "text"
      },
      {
        "name": "studentStatus",
        "filter": "(student/studentStatus/alternateName eq '${value}')",
        "type": "text"
      },
      {
        "name": "actionStatus",
        "filter": "(actionStatus/alternateName eq '${value}')",
        "type": "text"
      },
      {
        "name": "studentIdentifier",
        "filter": "(indexof(student/studentIdentifier, '${value}') ge 0)",
        "type": "text"
      },
      {
        "name": "startTime",
        "filter": "(startTime eq '${value}')",
        "type": "text"
      },
      {
        "name": "department",
        "filter": "(student/department/name eq '${value}')",
        "type": "text"
      },
      {
        "name": "minDate",
        "filter": "(dateCreated ge '${new Date(value).toISOString()}')"
      },
      {
        "name": "maxDate",
        "filter": "(dateCreated le '${new Date(value).toISOString()}')"
      }
    ],
    "searches" : [
      {
        "name": "AdvancedSearch.PreDefinedLists.activeRequests",
        "filter": {
          "actionStatus": "ActiveActionStatus"
        }
      },
      {
        "name": "AdvancedSearch.PreDefinedLists.completedRequests",
        "filter": {
          "actionStatus": "CompletedActionStatus"
        }
      },
      {
        "name": "AdvancedSearch.PreDefinedLists.activeStudents",
        "filter": {
          "studentStatus": "active"
        }
      },
      {
        "name": "AdvancedSearch.PreDefinedLists.graduatedStudents",
        "filter": {
          "studentStatus": "graduated"
        }
      },
      {
        "name": "AdvancedSearch.PreDefinedLists.declaredStudents",
        "filter": {
          "studentStatus": "declared"
        }
      }
    ]
  }
