{
  "title": "Academic textbooks",
  "model": "Books",
  "searchExpression": "",
  "columns": [
    {
      "name": "id",
      "hidden": "false"
    },
    {
      "name": "book_title",
      "property": "book_title",
      "className": "text-left",
      "title": "Classes.AcademicTextbooks.BookTitle"
    },
    {
      "name": "authors",
      "property": "authors",
      "className": "text-left",
      "title": "Classes.AcademicTextbooks.Authors"
    },
    {
      "name": "book_type",
      "property": "book_type",
      "className": "text-left",
      "title": "Classes.AcademicTextbooks.BookType",
      "formatters": [
        {
          "formatter": "TranslationFormatter",
          "formatString": "Classes.AcademicTextbooks.${value}"
        }
      ]
    },
    {
      "name": "editorialhouse",
      "property": "editorialhouse",
      "className": "text-left",
      "title": "Classes.AcademicTextbooks.EditorialHouse"
    },
    {
      "name": "Isbn",
      "property": "Isbn",
      "className": "text-center",
      "title": "Classes.AcademicTextbooks.ISBN"
    },
    {
      "name": "publicationyear",
      "property": "publicationyear",
      "className": "text-center",
      "title": "Classes.AcademicTextbooks.PublicationYear"
    },
    {
      "name": "editionnumber",
      "property": "editionnumber",
      "className": "text-left",
      "title": "Classes.AcademicTextbooks.EditionNumber"
    },
    {
      "name": "publishername",
      "property": "publishername",
      "className": "text-left",
      "title": "Classes.AcademicTextbooks.PublisherName"
    },
    {
      "name": "professor",
      "property": "professor",
      "className": "text-left",
      "title": "Classes.AcademicTextbooks.Professors"
    }
  ],
  "defaults": {},
  "criteria": []
}