{
  "model": "DepartmentRoles",
  "settings": {
    "i18n": {
      "el": {
        "Select personnel": "Επιλογή φυσικού προσώπου / μέλους προσωπικού",
        "Role type": "Ιδιότητα / Ρόλος",
        "Start date": "Ημερομηνία παραλαβής καθηκόντων",
        "End date": "Ημερομηνία παράδοσης καθηκόντων",
        "Select the personnel that the role will be assigned to": "Επιλέξτε το μέλος προσωπικού στο οποίο θα ανατεθεί ο ρόλος",
        "Select the role type": "Κάθε ρόλος αντιπροσωπεύεται ενεργά μόνο από ένα μέλος στο τμήμα. Στην περίπτωση προσθήκης ανενεργού ρόλου, οι επιλογές είναι όλες διαθέσιμες",
        "Select if the role will be active": "Επιλέξτε αν ο ρόλος θα είναι ενεργός",
        "Select the start date": "Επιλέξτε την ημερομηνία ανάληψης καθηκόντων",
        "Select the end date": "Επιλέξτε την ημερομηνία παράδοσης καθηκόντων",
        "Start date cannot exceed end date": "Η ημ. παραλαβής πρέπει να προηγείται της ημ. παράδοσης"
      }
    }
  },
  "components": [
    {
      "key": "fieldset",
      "type": "fieldset",
      "input": false,
      "components": [
        {
          "columns": [
            {
              "components": [
                {
                  "label": "Department",
                  "labelPosition": "top",
                  "key": "department.name",
                  "dataType": "object",
                  "idPath": "id",
                  "type": "textfield",
                  "disabled": true,
                  "customConditional": "show = (data && data.department && data.department.name)"
                }
              ],
              "width": 12
            },
            {
              "components": [
                {
                  "label": "Select personnel",
                  "widget": "choicesjs",
                  "dataSrc": "url",
                  "defaultValue": "",
                  "labelPosition": "top",
                  "data": {
                    "values": [],
                    "url": "/Personnels?$top={{limit}}&$skip={{skip}}&$select=id, person/familyName as familyName, person/givenName as givenName, user/name as user&$filter=(indexof(person/familyName, '{{encodeURIComponent(search||'')}}') ge 0 or indexof(user/name, '{{encodeURIComponent(search||'')}}') ge 0)",
                    "headers": []
                  },
                  "lazyLoad": true,
                  "searchField": "search",
                  "searchEnabled": true,
                  "selectThreshold": 0.3,
                  "limit": 50,
                  "validate": {
                    "required": true
                  },
                  "template": "{{ item.familyName }} {{ item.givenName }} - {{item.user || '-'}}",
                  "key": "personnel",
                  "dataType": "object",
                  "idPath": "id",
                  "type": "select",
                  "selectValues": "value",
                  "input": true,
                  "description": "Select the personnel that the role will be assigned to"
                }
              ],
              "width": 12
            },
            {
              "components": [
                {
                  "label": "Role type",
                  "labelPosition": "top",
                  "dataSrc": "url",
                  "data": {
                    "url": "{{data.active === true ? 'Departments/' + data.department.id + '/availableRoles?$top=-1?&$select=id, name, alternateName&t=' + new Date().getTime(): 'RoleTypes?$top=-1&$select=id, name, alternateName'}}",
                    "headers": []
                  },
                  "validate": {
                    "required": true
                  },
                  "redrawOn": "active",
                  "clearOnRefresh": true,
                  "searchFields": ["id", "name"],
                  "template": "{{item.name}}",
                  "selectValues": "value",
                  "widget": "choicesjs",
                  "key": "roleName",
                  "dataType": "object",
                  "idPath": "id",
                  "type": "select",
                  "input": true,
                  "customConditional": "show = (data && data.department && data.department.id)",
                  "description": "Select the role type"
                }
              ],
              "width": 8
            },
            {
              "components": [
                {
                  "label": "Active",
                  "labelPosition": "top",
                  "widget": "choicesjs",
                  "searchEnabled": false,
                  "data": {
                    "values": [
                      {
                        "label": "Yes",
                        "value": "true"
                      },
                      {
                        "label": "No",
                        "value": "false"
                      }
                    ]
                  },
                  "validate": {
                    "required": true
                  },
                  "dataType": "boolean",
                  "type": "select",
                  "key": "active",
                  "input": true,
                  "defaultValue": "true",
                  "description": "Select if the role will be active"
                }
              ],
              "width": 4
            },
            {
              "components": [
                {
                  "label": "Start date",
                  "useLocaleSettings": true,
                  "tableView": false,
                  "enableMinDateInput": false,
                  "validate": {
                    "required": true,
                    "custom": "valid = !data.endDate || (input && moment(input).isBefore(data.endDate));",
                    "customMessage": "Start date cannot exceed end date"
                  },
                  "datePicker": {
                    "disableWeekends": false,
                    "disableWeekdays": false
                  },
                  "enableMaxDateInput": false,
                  "enableTime": false,
                  "key": "startDate",
                  "type": "datetime",
                  "input": true,
                  "widget": {
                    "type": "calendar",
                    "displayInTimezone": "viewer",
                    "locale": "en",
                    "useLocaleSettings": true,
                    "allowInput": true,
                    "mode": "single",
                    "enableTime": false,
                    "noCalendar": false,
                    "format": "yyyy-MM-dd",
                    "hourIncrement": 1,
                    "minuteIncrement": 1,
                    "time_24hr": false,
                    "disableWeekends": false,
                    "disableWeekdays": false
                  },
                  "description": "Select the start date"
                }
              ],
              "width": 6,
              "offset": 0,
              "push": 0,
              "pull": 0
            },
            {
              "components": [
                {
                  "label": "End date",
                  "useLocaleSettings": true,
                  "tableView": false,
                  "enableMinDateInput": false,
                  "validate": {
                    "required": false
                  },
                  "datePicker": {
                    "disableWeekends": false,
                    "disableWeekdays": false
                  },
                  "enableMaxDateInput": false,
                  "enableTime": false,
                  "key": "endDate",
                  "type": "datetime",
                  "input": true,
                  "widget": {
                    "type": "calendar",
                    "displayInTimezone": "viewer",
                    "locale": "en",
                    "useLocaleSettings": true,
                    "allowInput": true,
                    "mode": "single",
                    "enableTime": false,
                    "noCalendar": false,
                    "format": "yyyy-MM-dd",
                    "hourIncrement": 1,
                    "minuteIncrement": 1,
                    "time_24hr": false,
                    "disableWeekends": false,
                    "disableWeekdays": false
                  },
                  "customConditional": "show = (data && data.active === false)",
                  "description": "Select the end date"
                }
              ],
              "width": 6,
              "offset": 0,
              "push": 0,
              "pull": 0
            }
          ],
          "customClass": "text-dark",
          "type": "columns",
          "input": false
        }
      ]
    }
  ]
}
