{
  "title": "Users.All",
  "model": "Users",
  "searchExpression": "indexof(alternateName, '${text}') ge 0 or indexof(departments/name, '${text}') ge 0",
  "selectable": true,
  "multipleSelect": true,
  "columns": [
    {
      "name": "id",
      "property": "id",
      "title": "Candidates.Viewers.Id",
      "sortable": false,
      "hidden": true
    },
    {
      "name": "name",
      "property": "name",
      "title": "Candidates.Username",
      "sortable": false
    },
    {
      "name": "alternateName",
      "property": "alternateName",
      "title": "Candidates.Viewers.FullName",
      "sortable": false
    },
    {
      "name": "departments/name",
      "property": "departmentName",
      "title": "Candidates.Department",
      "sortable": false,
      "virtual": true,
      "formatters": [
        {
          "formatter": "TemplateFormatter",
          "formatString": "${departments && Array.isArray(departments) && departments.length > 0 ? (departments.slice(0, 5).map(x=> x.name).join(',') + (departments.length > 5 ? '...' : '')) : '-'}"
        }
      ]
    },
    {
      "name": "groups/name",
      "property": "groupsName",
      "title": "Candidates.Viewers.Group",
      "sortable": false
    }
  ],
  "defaults": {
    "filter": "(groups/name eq 'CandidateViewers')",
    "expand": "groups,departments"
  }
}