{
  "model": "StudyProgramSemsterRules",
  "components": [
    {
      "label": "Columns",
      "columns": [
        {
          "components": [
            {
              "label": "Courses.semester",
              "widget": "choicesjs",
              "dataSrc": "url",
              "data": {
                "url": "Semesters?$orderby=id",
                "headers": []
              },
              "template": "<span class='d-block pr-5 text-truncate'>{{ item.name }}</span>",
              "valueProperty": "name",
              "selectValues": "value",
              "key": "semester",
              "type": "select",
              "input": true,
              "searchEnabled": false
            }
          ],
          "width": 3,
          "offset": 0,
          "push": 0,
          "pull": 0
        },
        {
          "components": [
            {
              "label": "StudyPrograms.RuleType",
              "widget": "choicesjs",
              "data": {
                "values": [
                  {
                    "label": "StudyPrograms.SemesterRule",
                    "value": "SemesterRule"
                  },
                  {
                    "label": "StudyPrograms.RegistrationRule",
                    "value": "RegistrationRule"
                  }
                ]
              },
              "selectThreshold": 0.3,
              "validate": {
                "unique": false,
                "multiple": false
              },
              "key": "additionalType",
              "valueProperty": "value",
              "selectValues": "label",
              "type": "select",
              "input": true,
              "hideOnChildrenHidden": false,
              "disableLimit": false,
              "lazyLoad": false,
              "searchEnabled": false
            }
          ],
          "width": 3,
          "offset": 0,
          "push": 0,
          "pull": 0
        }
      ],
      "tableView": false,
      "key": "department",
      "type": "columns",
      "input": false,
      "path": "columns"
    }
  ]
}
