{
  "id": "declared-student-list",
  "title": "Students.Declared",
  "model": "StudentDeclarations",
  "searchExpression":"indexof(student/studentIdentifier, '${text}') ge 0 or indexof(student/person/familyName, '${text}') ge 0 or indexof(student/person/givenName, '${text}') ge 0 or indexof(student/user/name, '${text}') ge 0 or indexof(student/studyProgram/name, '${text}') ge 0 or indexof(student/studentStatus/name, '${text}') ge 0 or indexof(student/uniqueIdentifier, '${text}') ge 0",
  "selectable": true,
  "multipleSelect": true,
  "columns": [
    {
      "name": "student",
      "property": "student",
      "title": "Students.StudentId",
      "hidden": true
    },
    {
      "name":"student",
      "placeholder": "Tables.ActionLinkColumn",
      "property": "id",
      "formatter": "ActionLinkFormatter",
      "actions" : [
        {
          "title": "Students.Preview",
          "href": "#/students/${id}/dashboard"
        },
        {
          "title": "Students.PreviewStudyProgram",
          "href": "#/study-programs/${studyProgramId}/preview/general"
        },
        {
          "title": "Students.PreviewStudentCourses",
          "href": "#/students/${id}/dashboard/courses",
          "role": "action"
        },
        {
          "title": "Students.Edit",
          "href": "#/students/${id}/edit",
          "access":[
            {
              "studentStatuses": [
                {"alternateName" : "active"}
              ]
            }
          ]
        },
        {
          "title": "Reports.Print",
          "href": "#/students/${id}/dashboard/overview/(modal:print)",
          "role": "action"
        },
        {
          "title": "Students.AssignUserAction.Title",
          "href": "#/students/${id}/dashboard/overview/(modal:assign-user)",
          "role": "action"
        }
      ]
    },
    {
      "name":"student/studyProgram",
      "property": "studyProgramId",
      "title": "Students.studyProgramId",
      "hidden": true
    },
    {
      "name":"student/studyProgramSpecialty",
      "property": "studyProgramSpecialtyId",
      "title": "Students.SpecialtyId",
      "hidden": true
    },
    {
      "name":"student/studentIdentifier",
      "property": "studentIdentifier",
      "title":"Students.studentIdentifier"
    },
    {
      "name": "student/person/familyName",
      "property": "familyName",
      "title": "Students.FamilyName",
      "hidden": true
    },
    {
      "name": "student/person/givenName",
      "property": "givenName",
      "title": "Students.GivenName",
      "hidden": true
    },
    {
      "name": "student/person/familyName",
      "property": "fullName",
      "title": "Students.fullName",
      "formatter": "TemplateFormatter",
      "formatString": "${familyName} ${givenName}"
    },
    {
      "name":"student/department/name",
      "property": "departmentName",
      "title":"Students.Department",
      "hidden": true
    },
    {
      "name":"student/studyProgram/abbreviation",
      "property": "studyProgram",
      "title":"Students.studyProgram"
    },
    {
      "name":"student/studyProgramSpecialty/abbreviation",
      "property": "studyProgramSpecialty",
      "title":"Students.Specialty"
    },
    {
      "name":"student/semester",
      "property": "semester",
      "title":"Students.semester"
    },
    {
      "name":"declaredDate",
      "property": "declaredDate",
      "title":"Students.DeclaredColumns.DeclaredDate",
      "formatter": "DateTimeFormatter",
      "formatString": "shortDate"
    },
    {
      "name":"declaredYear/alternateName",
      "property": "declaredYear",
      "title":"Students.DeclaredColumns.AcademicYear"
    },
    {
      "name":"declaredPeriod/alternateName",
      "property": "declaredPeriod",
      "title":"Students.DeclaredColumns.AcademicPeriod",
      "formatter": "TranslationFormatter",
      "formatString": "Periods.${value}"
    },
    {
      "name":"graduationGradeAdjusted",
      "property": "graduationGradeAdjusted",
      "title":"Students.DeclaredColumns.GraduationGrade",
      "formatters": [
        {
          "formatter": "TemplateFormatter",
          "formatString": "${graduationGradeAdjusted != null ? graduationGradeAdjusted : '-'}"
        },
        {
          "formatter": "NgClassFormatter",
          "formatOptions": {
            "ngClass": {
              "text-success font-lg": "true"
            }
          }
        }
      ]
    },
    {
      "name":"student/studentStatus/alternateName",
      "property": "studentStatus",
      "title":"Students.studentStatus",
      "hidden": true
    },
    {
      "name": "student/user",
      "property": "user",
      "title": "Students.User",
      "hidden": true
    },
    {
      "name": "student/studentInstituteIdentifier",
      "property": "studentInstituteIdentifier",
      "title": "Students.studentInstituteIdentifier",
      "hidden": true,
      "optional": true
    },
    {
      "name": "student/schoolGraduated",
      "property": "schoolGraduated",
      "title": "Students.SchoolGraduated",
      "hidden": true,
      "optional": true
    },
    {
      "name": "student/schoolGraduatedYear",
      "property": "schoolGraduatedYear",
      "title": "Students.SchoolGraduatedYear",
      "hidden": true,
      "optional": true
    },
    {
      "name": "student/inscriptionNumber",
      "property": "inscriptionNumber",
      "title": "Students.InscriptionNumber",
      "hidden": true,
      "optional": true
    },
    {
      "name": "student/schoolGraduationNumber",
      "property": "schoolGraduationNumber",
      "title": "Students.SchoolGraduationNumber",
      "hidden": true,
      "optional": true
    },
    {
      "name": "student/inscriptionIndex",
      "property": "inscriptionIndex",
      "title": "Students.InscriptionIndex",
      "hidden": true,
      "optional": true
    },
    {
      "name": "student/schoolGraduationGrade",
      "property": "schoolGraduationGrade",
      "title": "Students.SchoolGraduationGrade",
      "hidden": true,
      "optional": true
    },
    {
      "name": "student/inscriptionDate",
      "property": "inscriptionDate",
      "title": "Students.InscriptionDate",
      "formatter": "DateTimeFormatter",
      "formatString": "shortDate",
      "hidden": true,
      "optional": true
    },
    {
      "name": "student/inscriptionDepartment",
      "property": "inscriptionDepartment",
      "title": "Students.InscriptionDepartment",
      "hidden": true,
      "optional": true
    },
    {
      "name": "student/inscriptionComments",
      "property": "inscriptionComments",
      "title": "Students.InscriptionComments",
      "hidden": true,
      "optional": true
    },
    {
      "name": "student/inscriptionDecision",
      "property": "inscriptionDecision",
      "title": "Students.InscriptionDecision",
      "hidden": true,
      "optional": true
    },
    {
      "name": "student/inscriptionPoints",
      "property": "inscriptionPoints",
      "title": "Students.InscriptionPoints",
      "hidden": true,
      "optional": true
    },
    {
      "name": "student/comments",
      "property": "comments",
      "title": "Students.Comments",
      "hidden": true,
      "optional": true
    },
    {
      "name": "student/uniqueIdentifier",
      "property": "uniqueIdentifier",
      "title": "Students.uniqueIdentifier",
      "hidden": true,
      "optional": true
    },
    {
      "name": "student/rate",
      "property": "rate",
      "title": "Students.Rate",
      "hidden": true,
      "optional": true
    },
    {
      "name": "student/person/fatherName",
      "property": "fatherName",
      "title": "Students.FatherName",
      "hidden": true,
      "optional": true
    },
    {
      "name": "student/person/motherName",
      "property": "motherName",
      "title": "Students.MotherName",
      "hidden": true,
      "optional": true
    },
    {
      "name": "student/person/identityCard",
      "property": "identityCard",
      "title": "Students.IdentityCard",
      "hidden": true,
      "optional": true
    },
    {
      "name": "student/person/email",
      "property": "email",
      "title": "Students.Email",
      "hidden": true,
      "optional": true
    },
    {
      "name": "student/person/homeAddress",
      "property": "homeAddress",
      "title": "Students.HomeAddress",
      "hidden": true,
      "optional": true
    },
    {
      "name": "student/person/homeCity",
      "property": "homeCity",
      "title": "Students.HomeCity",
      "hidden": true,
      "optional": true
    },
    {
      "name": "student/person/homeCountry",
      "property": "homeCountry",
      "title": "Students.HomeCountry",
      "hidden": true,
      "optional": true
    },
    {
      "name": "student/person/homePhone",
      "property": "homePhone",
      "title": "Students.HomePhone",
      "hidden": true,
      "optional": true
    },
    {
      "name": "student/person/temporaryAddress",
      "property": "temporaryAddress",
      "title": "Students.TemporaryAddress",
      "hidden": true,
      "optional": true
    },
    {
      "name": "student/person/temporaryCity",
      "property": "temporaryCity",
      "title": "Students.TemporaryCity",
      "hidden": true,
      "optional": true
    },
    {
      "name": "student/person/temporaryCountry",
      "property": "temporaryCountry",
      "title": "Students.TemporaryCountry",
      "hidden": true,
      "optional": true
    },
    {
      "name": "student/person/temporaryPhone",
      "property": "temporaryPhone",
      "title": "Students.TemporaryPhone",
      "hidden": true,
      "optional": true
    },
    {
      "name": "student/person/SSN",
      "property": "SSN",
      "title": "Students.SSN",
      "hidden": true,
      "optional": true
    },
    {
      "name": "student/person/insuranceNumber",
      "property": "insuranceNumber",
      "title": "Students.InsuranceNumber",
      "hidden": true,
      "optional": true
    },
    {
      "name": "student/person/mobilePhone",
      "property": "mobilePhone",
      "title": "Students.MobilePhone",
      "hidden": true,
      "optional": true
    },
    {
      "name": "student/person/gender/alternateName",
      "property": "gender",
      "title": "Students.Gender",
      "formatter": "TranslationFormatter",
      "formatString": "Genders.${value}",
      "hidden": true,
      "optional": true
    },
    {
      "name": "student/person/vatNumber",
      "property": "vatNumber",
      "title": "Students.VatNumber",
      "hidden": true,
      "optional": true
    },
    {
      "name": "student/person/birthDate",
      "property": "birthDate",
      "title": "Students.BirthDate",
      "formatter": "DateTimeFormatter",
      "formatString": "shortDate",
      "hidden": true,
      "optional": true
    },
    {
      "name": "student/person/birthPlace",
      "property": "birthPlace",
      "title": "Students.BirthPlace",
      "hidden": true,
      "optional": true
    },
    {
      "name": "student/militaryStatus/name",
      "property": "militaryStatus",
      "title": "Students.MilitaryStatus",
      "hidden": true,
      "optional": true
    },
    {
      "name": "graduationDate",
      "property": "graduationDate",
      "title": "Students.DeclaredColumns.GraduationDate",
      "formatter": "DateTimeFormatter",
      "formatString": "shortDate",
      "hidden": true,
      "optional": true
    },
    {
      "name": "graduationGradeWrittenInWords",
      "property": "graduationGradeWrittenInWords",
      "title": "Students.DeclaredColumns.GraduationGradeWrittenInWords",
      "hidden": true,
      "optional": true
    }
  ],
  "criteria": [
    {
      "name": "studentIdentifier",
      "filter": "(student/studentIdentifier eq '${value}')",
      "type": "text"
    },
    {
      "name": "studentName",
      "filter": "(indexof(student/person/familyName, '${value}') ge 0 or indexof(student/person/givenName, '${value}') ge 0)",
      "type": "text"
    },
    {
      "name": "username",
      "filter": "(indexof(student/user/name, '${value}') ge 0)",
      "type": "text"
    },
    {
      "name": "studyProgram",
      "filter": "(student/studyProgram eq ${value})",
      "type": "text"
    },
    {
      "name": "studyProgramSpecialty",
      "filter": "(student/studyProgramSpecialty eq '${value.id}')",
      "type": "text"
    },
    {
      "name": "graduationTitle",
      "filter": "(indexof(student/graduationTitle, '${value}') ge 0)",
      "type": "text"
    },
    {
      "name": "graduationYear",
      "filter": "(declaredYear/id eq '${value}')",
      "type": "text"
    },
    {
      "name": "graduationPeriod",
      "filter": "(declaredPeriod/id eq '${value}')",
      "type": "text"
    },
    {
      "name": "semester",
      "filter": "(student/semester eq '${value}')",
      "type": "text"
    },
    {
      "name": "hasUser",
      "filter": "${value >=1 ? '(student/user ne null)': '(student/user eq null)'}",
      "type": "text"
    }
  ],
  "defaults":{
    "filter": "(student/department eq '${currentDepartment}' and student/studentStatus/alternateName eq 'declared')",
    "expand": "student($expand=studentSeries)"
  },
  "paths" : [
    {
      "name": "Students.All",
      "show": true,
      "alternateName": "list",
      "filter": {
      }
    },
    {
      "name": "Students.Active",
      "alternateName": "active",
      "show": true,
      "filter": {
        "status": "active"
      }
    },
    {
      "name": "Students.FirstYear",
      "alternateName": "first-year",
      "filter": {
        "firstYearStudents": true
      }
    },
    {
      "name": "Students.Candidates",
      "alternateName": "candidates",
      "filter": {
        "status": "candidate"
      }
    },
    {
      "name": "Students.Declared",
      "alternateName": "declared",
      "filter": {
        "status": "declared"
      }
    },
    {
      "name": "Students.Graduated",
      "alternateName": "graduated",
      "filter": {
        "status": "graduated"
      }
    },
    {
      "name": "Students.Suspended",
      "alternateName": "suspended",
      "filter": {
        "status": "suspended"
      }
    },
    {
      "name": "Students.Removed",
      "alternateName": "removed",
      "filter": {
        "status": "erased"
      }
    },
    {
      "name": "Students.WithoutCounselor",
      "alternateName": "without-counselor",
      "filter": {
      }
    }
  ]
}
