{
  "model": "StudentRemoveActions",
  "title": "Student Removal",
  "settings": {
    "i18n": {
      "el": {
        "Student Removal": "Διαγραφή Φοιτητή"
      }
    }
  },
  "components": [
    {
      "type": "fieldset",
      "legend": "Student Removal Information",
      "components": [
        {
          "columns": [
            {
              "components": [
                {
                  "label": "Removal Number",
                  "labelPosition": "top",
                  "widget": {
                    "type": "input"
                  },
                  "disabled": true,
                  "key": "removalNumber",
                  "type": "textfield",
                  "input": true
                }
              ],
              "width": 3
            },
            {
              "components": [
                {
                  "label": "Removal Date",
                  "key": "removalDate",
                  "enableTime": false,
                  "labelPosition": "top",
                  "widget": {
                    "type": "input"
                  },
                  "disabled": true,
                  "type": "datetime",
                  "format": "dd/MM/yyyy",
                  "input": true
                }
              ],
              "width": 3
            },
            {
              "components": [
                {
                  "label": "Removal Year",
                  "labelPosition": "top",
                  "key": "removalYear.alternateName",
                  "type": "select",
                  "searchEnabled": false,
                  "dataSrc": "url",
                  "data": {
                    "url": "AcademicYears?$top={{limit}}&$skip={{skip}}&$orderby=id desc",
                    "headers": []
                  },
                  "limit": 20,
                  "template": "{{ item.alternateName }}",
                  "input": true,
                  "lazyLoad": true,
                  "selectValues": "value",
                  "widget": "choicesjs",
                  "disabled": true
                }
              ],
              "width": 3
            },
            {
              "components": [
                {
                  "label": "Removal Period",
                  "labelPosition": "top",
                  "widget": "choicesjs",
                  "dataSrc": "url",
                  "data": {
                    "url": "AcademicPeriods",
                    "headers": []
                  },
                  "template": "{{ item.name }}",
                  "selectValues": "value",
                  "key": "removalPeriod.name",
                  "type": "select",
                  "input": true,
                  "searchEnabled": false,
                  "disabled": true
                }
              ],
              "width": 3
            },
            {
              "components": [
                {
                  "label": "Removal Decision",
                  "labelPosition": "top",
                  "widget": {
                    "type": "input"
                  },
                  "disabled": true,
                  "key": "removalDecision",
                  "type": "textfield",
                  "input": true
                }
              ],
              "width": 6
            },
            {
              "components": [
                {
                  "label": "Removal Request",
                  "key": "removalRequest",
                  "labelPosition": "top",
                  "widget": {
                    "type": "input"
                  },
                  "disabled": true,
                  "type": "textfield",
                  "input": true
                }
              ],
              "width": 6
            },
            {
              "components": [
                {
                  "label": "Removal Department",
                  "key": "removalDepartment",
                  "labelPosition": "top",
                  "disabled": true,
                  "input": true,
                  "type": "textfield",
                  "clearOnRefresh": true
                }
              ],
              "width": 12,
              "offset": 0,
              "push": 0,
              "pull": 0
            },
            {
              "components": [
                {
                  "label": "Removal Reason",
                  "labelPosition": "top",
                  "widget": {
                    "type": "input"
                  },
                  "disabled": true,
                  "key": "removalReason",
                  "type": "textarea",
                  "input": true
                }
              ],
              "width": 12
            },
            {
              "components": [
                {
                  "label": "Removal Comments",
                  "labelPosition": "top",
                  "widget": {
                    "type": "input"
                  },
                  "disabled": true,
                  "key": "removalComments",
                  "type": "textarea",
                  "input": true
                }
              ],
              "width": 12
            }

          ],
          "customClass": "text-dark",
          "hideLabel": true,
          "type": "columns",
          "input": false
        }
      ]
    }
  ],
  "width": 3
}
