{
  "model": "UpdateProgramActions",
  "settings": {
    "i18n": {
      "el": {
        "Transfer student to study program": "Μεταφορά φοιτητών σε πρόγραμμα σπουδών",
        "Study program": "Πρόγραμμα σπουδών",
        "Specialty": "Κατεύθυνση",
        "to specialty": "στην κατεύθυνση",
        "Selected students attend this study program": "Οι επιλεγμένοι φοιτητές ακολουθούν αυτό το πρόγραμμα",
        "Select the study program to transfer students to": "Επιλέξτε το πρόγραμμα σπουδών στο οποίο θα μεταφερθούν οι φοιτητές",
        "Select the specialty to transfer students to": "Επιλέξτε την κατεύθυνση στην οποία θα μεταφερθούν οι επιλεγμένοι φοιτητές",
        "Change course properties": "Αλλαγή ιδιοτήτων μαθημάτων",
        "Exclude old courses": "Εξαίρεση παλιών μαθημάτων",
        "Choose whether the student's courses attributes (semester, etc.) will be updated by the new study program": "Επιλέξτε αν θα ενημερωθούν οι ιδιότητες των μαθημάτων του φοιτητή (εξάμηνο, ects κλπ) από το νέο πρόγραμμα σπουδών",
        "Choose whether the student's courses that do not exist in the new study program will be excluded in the degree": "Επιλέξτε αν θα εξαιρεθούν από το πτυχίο τα μαθήματα του φοιτητή που δεν υπάρχουν στο νέο πρόγραμμα σπουδών"
      }
    }
  },
  "components": [
    {
      "type": "fieldset",
      "label": "Transfer student to study program",
      "key": "fieldSet",
       "input": false,

      "components": [
        {
          "columns": [
            {
              "components": [
                {
                  "label": "Transfer student to study program",
                  "customClass": "formio-component-select-wrap",
                  "labelPosition": "top",
                  "widget": "choicesjs",
                  "dataSrc": "url",
                  "customConditional": "show = !!(data.department && data.currentProgram);",
                  "data": {
                    "url": "/StudyPrograms?$orderby=name&$select=id,name&$top=-1&$filter=(department eq {{data.department}} and id ne {{data.currentProgram}})",
                    "headers": []
                  },
                  "lazyLoad": true,
                  "searchEnabled": true,
                  "selectThreshold": 0.3,
                  "validate": {
                    "required": true
                  },
                  "valueProperty": "id",
                  "dataType": "string",
                  "template": "<span class='d-block pr-5'>{{ item.name }}</span>",
                  "key": "studyProgram",
                  "type": "select",
                  "selectValues": "value",
                  "input": true,
                  "description": "Select the study program to transfer students to"
                }
              ],
              "width": 8
            },
            {
              "components": [
                {
                  "label": "to specialty",
                  "labelPosition": "top",
                  "widget": "choicesjs",
                  "dataSrc": "url",
                  "customConditional": "show = !!data.studyProgram;",
                  "data": {
                    "url": "/StudyProgramSpecialties?$select=id,name&$filter=studyProgram eq {{data.studyProgram}}",
                    "headers": []
                  },
                  "validate": {
                    "required": true
                  },
                  "valueProperty": "id",
                  "refreshOn": "studyProgram",
                  "lazyLoad": true,
                  "clearOnRefresh": true,
                  "dataType": "string",
                  "template": "<span class='d-block pr-5 text-truncate'>{{ item.name }}</span>",
                  "selectThreshold": 0.3,
                  "key": "specialty",
                  "type": "select",
                  "selectValues": "value",
                  "input": true,
                  "description": "Select the specialty to transfer students to"
                }
              ],
              "width": 8
            },
            {
              "components": [
                {
                  "label": "Change course properties",
                  "labelPosition": "top",
                  "widget": "choicesjs",
                  "data": {
                    "values": [
                      {
                        "label": "No",
                        "value": "false"
                      },
                      {
                        "label": "Yes",
                        "value": "true"
                      }
                    ]
                  },
                  "validate": {
                    "required": true
                  },
                  "key": "updateCourse",
                  "searchEnabled": false,
                  "type": "select",
                  "description": "Choose whether the student's courses attributes (semester, etc.) will be updated by the new study program"
                }
              ],
              "width": 8
            },
            {
              "components": [
                {
                  "label": "Exclude old courses",
                  "labelPosition": "top",
                  "widget": "choicesjs",
                  "data": {
                    "values": [
                      {
                        "label": "No",
                        "value": "false"
                      },
                      {
                        "label": "Yes",
                        "value": "true"
                      }
                    ]
                  },
                  "validate": {
                    "required": true
                  },
                  "key": "excludeCourse",
                  "searchEnabled": false,
                  "type": "select",
                  "description": "Choose whether the student's courses that do not exist in the new study program will be excluded in the degree"
                }
              ],
              "width": 8
            }
          ],
          "customClass": "text-dark",
          "hideLabel": true,
          "type": "columns",
          "input": false
        }
      ]
    }
  ]
}
