{
    "settings": {
        "i18n": {
          "el": {
            "Social security number must be 11-digit long.":"O Αριθμός Μητρώου Κοινωνικής Ασφάλισης πρέπει να αποτελείται από 11 ψηφιά.",
            "Tax number must be 9-digit long.":"O Αριθμός Φορολογικού Μητρώου πρέπει να αποτελείται από 9 ψηφιά.",
            "Birth date format is Year-Month-Day e.g. 2000-10-22":"Η μορφοποίηση της ημερομηνίας γέννησης είναι Έτος-Μήνας-Ημερα πχ. 2000-10-22",
            "Clear": "Καθαρισμός"
          }
        }
      },
    "components": [
        {
            "title": "Personal Information Validation",
            "collapsible": false,
            "customClass": "border-0",
            "type": "panel",
            "label": "Panel",
            "hideLabel": true,
            "input": false,
            "tableView": false,
            "components": [
                {
                    "label": "Tax Number",
                    "tableView": true,
                    "key": "taxId",
                    "tabindex": "1",
                    "type": "textfield",
                    "customClass": "mb-0",
                    "attributes": {
                        "maxlength": 9
                    },
                    "input": true,
                    "validate": {
                        "maxLength": 9,
                        "pattern": "\\d{9}",
                        "customMessage": "Tax number must be 9-digit long."
                    }
                },
                {
                    "label": "Social Security Number",
                    "tableView": true,
                    "key": "ssn",
                    "tabindex": "2",
                    "type": "textfield",
                    "customClass": "mb-0",
                    "attributes": {
                        "maxlength": 11
                    },
                    "input": true,
                    "validate": {
                        "maxLength": 11,
                        "pattern": "\\d{11}",
                        "customMessage": "Social security number must be 11-digit long."
                    }
                },
                {
                    "label": "Columns",
                    "columns": [
                        {
                            "components": [
                                {
                                    "label": "First Name",
                                    "tableView": true,
                                    "key": "firstName",
                                    "tabindex": "3",
                                    "customClass": "mb-0",
                                    "type": "textfield",
                                    "input": true
                                },
                                {
                                    "label": "Father Name",
                                    "tableView": true,
                                    "key": "fatherName",
                                    "tabindex": "5",
                                    "customClass": "mb-0",
                                    "type": "textfield",
                                    "input": true
                                },
                                {
                                    "label": "Birth Date",
                                    "format": "yyyy-MM-dd",
                                    "customClass": "mb-0",
                                    "tableView": false,
                                    "enableDate": true,
                                    "datePicker": {
                                        "disableWeekends": false,
                                        "disableWeekdays": false
                                    },
                                    "enableTime": false,
                                    "enableMinDateInput": false,
                                    "enableMaxDateInput": false,
                                    "description": "Birth date format is Year-Month-Day e.g. 2000-10-22",
                                    "placeholder": "YYYY-MM-DD",
                                    "key": "birthDate",
                                    "tabindex": "7",
                                    "type": "datetime",
                                    "input": true,
                                    "widget": {
                                        "type": "calendar",
                                        "displayInTimezone": "viewer",
                                        "locale": "en",
                                        "useLocaleSettings": false,
                                        "allowInput": true,
                                        "mode": "single",
                                        "enableTime": false,
                                        "noCalendar": true,
                                        "format": "yyyy-MM-dd",
                                        "hourIncrement": 1,
                                        "minuteIncrement": 1,
                                        "time_24hr": false,
                                        "minDate": null,
                                        "disableWeekends": false,
                                        "disableWeekdays": false,
                                        "maxDate": null
                                    }
                                }
                            ],
                            "width": 6,
                            "offset": 0,
                            "push": 0,
                            "pull": 0,
                            "size": "md",
                            "currentWidth": 6
                        },
                        {
                            "components": [
                                {
                                    "label": "Last Name",
                                    "tableView": true,
                                    "key": "lastName",
                                    "tabindex": "4",
                                    "customClass": "mb-0",
                                    "type": "textfield",
                                    "input": true
                                },
                                {
                                    "label": "Mother Name",
                                    "tableView": true,
                                    "key": "motherName",
                                    "tabindex": "6",
                                    "customClass": "mb-0",
                                    "type": "textfield",
                                    "input": true
                                }
                            ],
                            "width": 6,
                            "offset": 0,
                            "push": 0,
                            "pull": 0,
                            "size": "md",
                            "currentWidth": 6
                        }
                    ],
                    "key": "columns",
                    "type": "columns",
                    "input": false,
                    "tableView": false
                },
                {
                    "type": "button",
                    "customClass": "mt-2 d-inline-block",
                    "label": "Search",
                    "tabindex": "8",
                    "action": "event",
                    "event": "search",
                    "disableOnInvalid": true,
                    "input": true,
                    "tableView": false
                },
                {
                    "type": "button",
                    "customClass": "ml-1 mt-2 d-inline-block text-secondary",
                    "leftIcon": "fa fa-eraser",
                    "theme": "light",
                    "label": "Clear",
                    "tabindex": "9",
                    "action": "event",
                    "event": "clear",
                    "input": true,
                    "tableView": false
                }
            ]
        }
    ]
}