{
  "title": "ProgramCourses",
  "model": "StudyProgramCourses",
  "searchExpression": "(indexof(course/name, '${text}') ge 0 or indexof(course/displayCode, '${text}') ge 0 or indexof(course/department/abbreviation, '${text}') ge 0 or indexof(course/department/name, '${text}') ge 0 or indexof(course/name, '${text}') ge 0 or indexof(course/displayCode, '${text}') ge 0 or indexof(course/department/abbreviation, '${text}') ge 0 or indexof(course/department/name, '${text}') ge 0)",
  "columns": [
    {
      "name": "id",
      "property": "programCourseID",
      "hidden": true
    },
    {
      "name": "course/id",
      "property": "courseID",
      "hidden": true
    },
    {
      "name": "course",
      "property": "course",
      "hidden": true
    },
    {
      "name": "course/id",
      "property": "id",
      "virtual": true,
      "formatter": "ActionLinkFormatter",
      "actions": [
        {
          "title": "StudentCourses.Preview",
          "href": "#/courses/${id}/"
        },
        {
          "title": "StudentCourses.Edit",
          "href": "#/courses/${id}/edit"
        }
      ]
    },
    {
      "name": "course/displayCode",
      "property": "displayCode",
      "title": "StudentCourses.DisplayCode"
    },
    {
      "name": "course/name",
      "property": "name",
      "title": "StudentCourses.name"
    },
    {
      "name": "course/department/abbreviation",
      "property": "departmentName",
      "title": "StudentCourses.Department"
    }
  ],
  "defaults": {
    "filter": "studyProgram eq ${program} and course/courseStructureType ne 8  and programGroup eq null"
  },
  "criteria": [
    {
      "name": "course/name",
      "filter": "(indexof(course/name, '${value}') ge 0)",
      "type": "text"
    },
    {
      "name": "course/department",
      "filter": "(course/department eq '${value}')",
      "type": "text"
    },
    {
      "name": "course/displayCode",
      "filter": "(indexof(course/displayCode, '${value}') ge 0)",
      "type": "text"
    }
  ],
  "paths": [
  ]
}
